<svg width="593" height="531" viewBox="0 0 593 531" fill="none" xmlns="http://www.w3.org/2000/svg">
<path fill-rule="evenodd" clip-rule="evenodd" d="M552.263 202.96C568.733 251.585 557.834 310.118 517.722 351.974C479.326 392.04 408.326 392.296 351.278 412.687C299.058 431.353 253.491 468.524 197.952 466.275C140.566 463.951 84.4229 439.275 55.3485 400.703C28.0626 364.504 46.5283 317.077 52.6763 273.542C57.4116 240.011 69.0467 208.87 86.8473 177.655C106.234 143.659 123.888 108.582 160.28 84.8514C202.969 57.0153 254.07 30.5429 306.813 34.2226C360.355 37.958 393.861 76.5348 433.707 103.927C478.12 134.46 536.682 156.96 552.263 202.96Z" fill="url(#paint0_linear)"/>
<path fill-rule="evenodd" clip-rule="evenodd" d="M263.732 168.717C263.732 169.666 262.973 170.434 262.036 170.434C261.1 170.434 260.341 169.666 260.341 168.717C260.341 167.769 261.1 167 262.036 167C262.973 167 263.732 167.769 263.732 168.717ZM251.864 168.717C251.864 169.666 251.105 170.434 250.168 170.434C249.232 170.434 248.473 169.666 248.473 168.717C248.473 167.769 249.232 167 250.168 167C251.105 167 251.864 167.769 251.864 168.717ZM239.995 168.717C239.995 169.666 239.236 170.434 238.3 170.434C237.364 170.434 236.605 169.666 236.605 168.717C236.605 167.769 237.364 167 238.3 167C239.236 167 239.995 167.769 239.995 168.717ZM228.127 168.717C228.127 169.666 227.368 170.434 226.432 170.434C225.495 170.434 224.736 169.666 224.736 168.717C224.736 167.769 225.495 167 226.432 167C227.368 167 228.127 167.769 228.127 168.717ZM216.259 168.717C216.259 169.666 215.5 170.434 214.564 170.434C213.627 170.434 212.868 169.666 212.868 168.717C212.868 167.769 213.627 167 214.564 167C215.5 167 216.259 167.769 216.259 168.717ZM204.391 168.717C204.391 169.666 203.632 170.434 202.695 170.434C201.759 170.434 201 169.666 201 168.717C201 167.769 201.759 167 202.695 167C203.632 167 204.391 167.769 204.391 168.717ZM263.732 180.002C263.732 180.95 262.973 181.719 262.036 181.719C261.1 181.719 260.341 180.95 260.341 180.002C260.341 179.053 261.1 178.284 262.036 178.284C262.973 178.284 263.732 179.053 263.732 180.002ZM251.864 180.002C251.864 180.95 251.105 181.719 250.168 181.719C249.232 181.719 248.473 180.95 248.473 180.002C248.473 179.053 249.232 178.284 250.168 178.284C251.105 178.284 251.864 179.053 251.864 180.002ZM239.995 180.002C239.995 180.95 239.236 181.719 238.3 181.719C237.364 181.719 236.605 180.95 236.605 180.002C236.605 179.053 237.364 178.284 238.3 178.284C239.236 178.284 239.995 179.053 239.995 180.002ZM228.127 180.002C228.127 180.95 227.368 181.719 226.432 181.719C225.495 181.719 224.736 180.95 224.736 180.002C224.736 179.053 225.495 178.284 226.432 178.284C227.368 178.284 228.127 179.053 228.127 180.002ZM216.259 180.002C216.259 180.95 215.5 181.719 214.564 181.719C213.627 181.719 212.868 180.95 212.868 180.002C212.868 179.053 213.627 178.284 214.564 178.284C215.5 178.284 216.259 179.053 216.259 180.002ZM204.391 180.002C204.391 180.95 203.632 181.719 202.695 181.719C201.759 181.719 201 180.95 201 180.002C201 179.053 201.759 178.284 202.695 178.284C203.632 178.284 204.391 179.053 204.391 180.002ZM263.732 191.286C263.732 192.234 262.973 193.003 262.036 193.003C261.1 193.003 260.341 192.234 260.341 191.286C260.341 190.338 261.1 189.569 262.036 189.569C262.973 189.569 263.732 190.338 263.732 191.286ZM251.864 191.286C251.864 192.234 251.105 193.003 250.168 193.003C249.232 193.003 248.473 192.234 248.473 191.286C248.473 190.338 249.232 189.569 250.168 189.569C251.105 189.569 251.864 190.338 251.864 191.286ZM239.995 191.286C239.995 192.234 239.236 193.003 238.3 193.003C237.364 193.003 236.605 192.234 236.605 191.286C236.605 190.338 237.364 189.569 238.3 189.569C239.236 189.569 239.995 190.338 239.995 191.286ZM228.127 191.286C228.127 192.234 227.368 193.003 226.432 193.003C225.495 193.003 224.736 192.234 224.736 191.286C224.736 190.338 225.495 189.569 226.432 189.569C227.368 189.569 228.127 190.338 228.127 191.286ZM216.259 191.286C216.259 192.234 215.5 193.003 214.564 193.003C213.627 193.003 212.868 192.234 212.868 191.286C212.868 190.338 213.627 189.569 214.564 189.569C215.5 189.569 216.259 190.338 216.259 191.286ZM204.391 191.286C204.391 192.234 203.632 193.003 202.695 193.003C201.759 193.003 201 192.234 201 191.286C201 190.338 201.759 189.569 202.695 189.569C203.632 189.569 204.391 190.338 204.391 191.286ZM263.732 203.061C263.732 204.009 262.973 204.778 262.036 204.778C261.1 204.778 260.341 204.009 260.341 203.061C260.341 202.113 261.1 201.344 262.036 201.344C262.973 201.344 263.732 202.113 263.732 203.061ZM251.864 203.061C251.864 204.009 251.105 204.778 250.168 204.778C249.232 204.778 248.473 204.009 248.473 203.061C248.473 202.113 249.232 201.344 250.168 201.344C251.105 201.344 251.864 202.113 251.864 203.061ZM239.995 203.061C239.995 204.009 239.236 204.778 238.3 204.778C237.364 204.778 236.605 204.009 236.605 203.061C236.605 202.113 237.364 201.344 238.3 201.344C239.236 201.344 239.995 202.113 239.995 203.061ZM228.127 203.061C228.127 204.009 227.368 204.778 226.432 204.778C225.495 204.778 224.736 204.009 224.736 203.061C224.736 202.113 225.495 201.344 226.432 201.344C227.368 201.344 228.127 202.113 228.127 203.061ZM216.259 203.061C216.259 204.009 215.5 204.778 214.564 204.778C213.627 204.778 212.868 204.009 212.868 203.061C212.868 202.113 213.627 201.344 214.564 201.344C215.5 201.344 216.259 202.113 216.259 203.061ZM204.391 203.061C204.391 204.009 203.632 204.778 202.695 204.778C201.759 204.778 201 204.009 201 203.061C201 202.113 201.759 201.344 202.695 201.344C203.632 201.344 204.391 202.113 204.391 203.061ZM263.732 214.346C263.732 215.294 262.973 216.063 262.036 216.063C261.1 216.063 260.341 215.294 260.341 214.346C260.341 213.397 261.1 212.628 262.036 212.628C262.973 212.628 263.732 213.397 263.732 214.346ZM251.864 214.346C251.864 215.294 251.105 216.063 250.168 216.063C249.232 216.063 248.473 215.294 248.473 214.346C248.473 213.397 249.232 212.628 250.168 212.628C251.105 212.628 251.864 213.397 251.864 214.346ZM239.995 214.346C239.995 215.294 239.236 216.063 238.3 216.063C237.364 216.063 236.605 215.294 236.605 214.346C236.605 213.397 237.364 212.628 238.3 212.628C239.236 212.628 239.995 213.397 239.995 214.346ZM228.127 214.346C228.127 215.294 227.368 216.063 226.432 216.063C225.495 216.063 224.736 215.294 224.736 214.346C224.736 213.397 225.495 212.628 226.432 212.628C227.368 212.628 228.127 213.397 228.127 214.346ZM216.259 214.346C216.259 215.294 215.5 216.063 214.564 216.063C213.627 216.063 212.868 215.294 212.868 214.346C212.868 213.397 213.627 212.628 214.564 212.628C215.5 212.628 216.259 213.397 216.259 214.346ZM204.391 214.346C204.391 215.294 203.632 216.063 202.695 216.063C201.759 216.063 201 215.294 201 214.346C201 213.397 201.759 212.628 202.695 212.628C203.632 212.628 204.391 213.397 204.391 214.346ZM263.732 225.63C263.732 226.578 262.973 227.347 262.036 227.347C261.1 227.347 260.341 226.578 260.341 225.63C260.341 224.682 261.1 223.913 262.036 223.913C262.973 223.913 263.732 224.682 263.732 225.63ZM251.864 225.63C251.864 226.578 251.105 227.347 250.168 227.347C249.232 227.347 248.473 226.578 248.473 225.63C248.473 224.682 249.232 223.913 250.168 223.913C251.105 223.913 251.864 224.682 251.864 225.63ZM239.995 225.63C239.995 226.578 239.236 227.347 238.3 227.347C237.364 227.347 236.605 226.578 236.605 225.63C236.605 224.682 237.364 223.913 238.3 223.913C239.236 223.913 239.995 224.682 239.995 225.63ZM228.127 225.63C228.127 226.578 227.368 227.347 226.432 227.347C225.495 227.347 224.736 226.578 224.736 225.63C224.736 224.682 225.495 223.913 226.432 223.913C227.368 223.913 228.127 224.682 228.127 225.63ZM216.259 225.63C216.259 226.578 215.5 227.347 214.564 227.347C213.627 227.347 212.868 226.578 212.868 225.63C212.868 224.682 213.627 223.913 214.564 223.913C215.5 223.913 216.259 224.682 216.259 225.63ZM204.391 225.63C204.391 226.578 203.632 227.347 202.695 227.347C201.759 227.347 201 226.578 201 225.63C201 224.682 201.759 223.913 202.695 223.913C203.632 223.913 204.391 224.682 204.391 225.63ZM335.176 168.717C335.176 169.666 334.417 170.434 333.481 170.434C332.544 170.434 331.785 169.666 331.785 168.717C331.785 167.769 332.544 167 333.481 167C334.417 167 335.176 167.769 335.176 168.717ZM323.308 168.717C323.308 169.666 322.549 170.434 321.613 170.434C320.676 170.434 319.917 169.666 319.917 168.717C319.917 167.769 320.676 167 321.613 167C322.549 167 323.308 167.769 323.308 168.717ZM311.44 168.717C311.44 169.666 310.681 170.434 309.744 170.434C308.808 170.434 308.049 169.666 308.049 168.717C308.049 167.769 308.808 167 309.744 167C310.681 167 311.44 167.769 311.44 168.717ZM299.572 168.717C299.572 169.666 298.813 170.434 297.876 170.434C296.94 170.434 296.181 169.666 296.181 168.717C296.181 167.769 296.94 167 297.876 167C298.813 167 299.572 167.769 299.572 168.717ZM287.704 168.717C287.704 169.666 286.945 170.434 286.008 170.434C285.072 170.434 284.313 169.666 284.313 168.717C284.313 167.769 285.072 167 286.008 167C286.945 167 287.704 167.769 287.704 168.717ZM275.835 168.717C275.835 169.666 275.076 170.434 274.14 170.434C273.204 170.434 272.445 169.666 272.445 168.717C272.445 167.769 273.204 167 274.14 167C275.076 167 275.835 167.769 275.835 168.717ZM335.176 180.002C335.176 180.95 334.417 181.719 333.481 181.719C332.544 181.719 331.785 180.95 331.785 180.002C331.785 179.053 332.544 178.284 333.481 178.284C334.417 178.284 335.176 179.053 335.176 180.002ZM323.308 180.002C323.308 180.95 322.549 181.719 321.613 181.719C320.676 181.719 319.917 180.95 319.917 180.002C319.917 179.053 320.676 178.284 321.613 178.284C322.549 178.284 323.308 179.053 323.308 180.002ZM311.44 180.002C311.44 180.95 310.681 181.719 309.744 181.719C308.808 181.719 308.049 180.95 308.049 180.002C308.049 179.053 308.808 178.284 309.744 178.284C310.681 178.284 311.44 179.053 311.44 180.002ZM299.572 180.002C299.572 180.95 298.813 181.719 297.876 181.719C296.94 181.719 296.181 180.95 296.181 180.002C296.181 179.053 296.94 178.284 297.876 178.284C298.813 178.284 299.572 179.053 299.572 180.002ZM287.704 180.002C287.704 180.95 286.945 181.719 286.008 181.719C285.072 181.719 284.313 180.95 284.313 180.002C284.313 179.053 285.072 178.284 286.008 178.284C286.945 178.284 287.704 179.053 287.704 180.002ZM275.835 180.002C275.835 180.95 275.076 181.719 274.14 181.719C273.204 181.719 272.445 180.95 272.445 180.002C272.445 179.053 273.204 178.284 274.14 178.284C275.076 178.284 275.835 179.053 275.835 180.002ZM335.176 191.286C335.176 192.234 334.417 193.003 333.481 193.003C332.544 193.003 331.785 192.234 331.785 191.286C331.785 190.338 332.544 189.569 333.481 189.569C334.417 189.569 335.176 190.338 335.176 191.286ZM323.308 191.286C323.308 192.234 322.549 193.003 321.613 193.003C320.676 193.003 319.917 192.234 319.917 191.286C319.917 190.338 320.676 189.569 321.613 189.569C322.549 189.569 323.308 190.338 323.308 191.286ZM311.44 191.286C311.44 192.234 310.681 193.003 309.744 193.003C308.808 193.003 308.049 192.234 308.049 191.286C308.049 190.338 308.808 189.569 309.744 189.569C310.681 189.569 311.44 190.338 311.44 191.286ZM299.572 191.286C299.572 192.234 298.813 193.003 297.876 193.003C296.94 193.003 296.181 192.234 296.181 191.286C296.181 190.338 296.94 189.569 297.876 189.569C298.813 189.569 299.572 190.338 299.572 191.286ZM287.704 191.286C287.704 192.234 286.945 193.003 286.008 193.003C285.072 193.003 284.313 192.234 284.313 191.286C284.313 190.338 285.072 189.569 286.008 189.569C286.945 189.569 287.704 190.338 287.704 191.286ZM275.835 191.286C275.835 192.234 275.076 193.003 274.14 193.003C273.204 193.003 272.445 192.234 272.445 191.286C272.445 190.338 273.204 189.569 274.14 189.569C275.076 189.569 275.835 190.338 275.835 191.286ZM335.176 203.061C335.176 204.01 334.417 204.778 333.481 204.778C332.544 204.778 331.785 204.01 331.785 203.061C331.785 202.113 332.544 201.344 333.481 201.344C334.417 201.344 335.176 202.113 335.176 203.061ZM323.308 203.061C323.308 204.009 322.549 204.778 321.613 204.778C320.676 204.778 319.917 204.009 319.917 203.061C319.917 202.113 320.676 201.344 321.613 201.344C322.549 201.344 323.308 202.113 323.308 203.061ZM311.44 203.061C311.44 204.009 310.681 204.778 309.744 204.778C308.808 204.778 308.049 204.009 308.049 203.061C308.049 202.113 308.808 201.344 309.744 201.344C310.681 201.344 311.44 202.113 311.44 203.061ZM299.572 203.061C299.572 204.009 298.813 204.778 297.876 204.778C296.94 204.778 296.181 204.009 296.181 203.061C296.181 202.113 296.94 201.344 297.876 201.344C298.813 201.344 299.572 202.113 299.572 203.061ZM287.704 203.061C287.704 204.009 286.945 204.778 286.008 204.778C285.072 204.778 284.313 204.009 284.313 203.061C284.313 202.113 285.072 201.344 286.008 201.344C286.945 201.344 287.704 202.113 287.704 203.061ZM275.835 203.061C275.835 204.009 275.076 204.778 274.14 204.778C273.204 204.778 272.445 204.009 272.445 203.061C272.445 202.113 273.204 201.344 274.14 201.344C275.076 201.344 275.835 202.113 275.835 203.061ZM335.176 214.346C335.176 215.294 334.417 216.063 333.481 216.063C332.544 216.063 331.785 215.294 331.785 214.346C331.785 213.397 332.544 212.628 333.481 212.628C334.417 212.628 335.176 213.397 335.176 214.346ZM323.308 214.346C323.308 215.294 322.549 216.063 321.613 216.063C320.676 216.063 319.917 215.294 319.917 214.346C319.917 213.397 320.676 212.628 321.613 212.628C322.549 212.628 323.308 213.397 323.308 214.346ZM311.44 214.346C311.44 215.294 310.681 216.063 309.744 216.063C308.808 216.063 308.049 215.294 308.049 214.346C308.049 213.397 308.808 212.628 309.744 212.628C310.681 212.628 311.44 213.397 311.44 214.346ZM299.572 214.346C299.572 215.294 298.813 216.063 297.876 216.063C296.94 216.063 296.181 215.294 296.181 214.346C296.181 213.397 296.94 212.628 297.876 212.628C298.813 212.628 299.572 213.397 299.572 214.346ZM287.704 214.346C287.704 215.294 286.945 216.063 286.008 216.063C285.072 216.063 284.313 215.294 284.313 214.346C284.313 213.397 285.072 212.628 286.008 212.628C286.945 212.628 287.704 213.397 287.704 214.346ZM275.835 214.346C275.835 215.294 275.076 216.063 274.14 216.063C273.204 216.063 272.445 215.294 272.445 214.346C272.445 213.397 273.204 212.628 274.14 212.628C275.076 212.628 275.835 213.397 275.835 214.346ZM335.176 225.63C335.176 226.578 334.417 227.347 333.481 227.347C332.544 227.347 331.785 226.578 331.785 225.63C331.785 224.682 332.544 223.913 333.481 223.913C334.417 223.913 335.176 224.682 335.176 225.63ZM323.308 225.63C323.308 226.578 322.549 227.347 321.613 227.347C320.676 227.347 319.917 226.578 319.917 225.63C319.917 224.682 320.676 223.913 321.613 223.913C322.549 223.913 323.308 224.682 323.308 225.63ZM311.44 225.63C311.44 226.578 310.681 227.347 309.744 227.347C308.808 227.347 308.049 226.578 308.049 225.63C308.049 224.682 308.808 223.913 309.744 223.913C310.681 223.913 311.44 224.682 311.44 225.63ZM299.572 225.63C299.572 226.578 298.813 227.347 297.876 227.347C296.94 227.347 296.181 226.578 296.181 225.63C296.181 224.682 296.94 223.913 297.876 223.913C298.813 223.913 299.572 224.682 299.572 225.63ZM287.704 225.63C287.704 226.578 286.945 227.347 286.008 227.347C285.072 227.347 284.313 226.578 284.313 225.63C284.313 224.682 285.072 223.913 286.008 223.913C286.945 223.913 287.704 224.682 287.704 225.63ZM275.835 225.63C275.835 226.578 275.076 227.347 274.14 227.347C273.204 227.347 272.445 226.578 272.445 225.63C272.445 224.682 273.204 223.913 274.14 223.913C275.076 223.913 275.835 224.682 275.835 225.63Z" fill="#C9E7E8"/>
<path fill-rule="evenodd" clip-rule="evenodd" d="M461.732 329.717C461.732 330.666 460.973 331.434 460.036 331.434C459.1 331.434 458.341 330.666 458.341 329.717C458.341 328.769 459.1 328 460.036 328C460.973 328 461.732 328.769 461.732 329.717ZM449.864 329.717C449.864 330.666 449.105 331.434 448.168 331.434C447.232 331.434 446.473 330.666 446.473 329.717C446.473 328.769 447.232 328 448.168 328C449.105 328 449.864 328.769 449.864 329.717ZM437.995 329.717C437.995 330.666 437.236 331.434 436.3 331.434C435.364 331.434 434.605 330.666 434.605 329.717C434.605 328.769 435.364 328 436.3 328C437.236 328 437.995 328.769 437.995 329.717ZM426.127 329.717C426.127 330.666 425.368 331.434 424.432 331.434C423.495 331.434 422.736 330.666 422.736 329.717C422.736 328.769 423.495 328 424.432 328C425.368 328 426.127 328.769 426.127 329.717ZM414.259 329.717C414.259 330.666 413.5 331.434 412.564 331.434C411.627 331.434 410.868 330.666 410.868 329.717C410.868 328.769 411.627 328 412.564 328C413.5 328 414.259 328.769 414.259 329.717ZM402.391 329.717C402.391 330.666 401.632 331.434 400.695 331.434C399.759 331.434 399 330.666 399 329.717C399 328.769 399.759 328 400.695 328C401.632 328 402.391 328.769 402.391 329.717ZM461.732 341.002C461.732 341.95 460.973 342.719 460.036 342.719C459.1 342.719 458.341 341.95 458.341 341.002C458.341 340.053 459.1 339.284 460.036 339.284C460.973 339.284 461.732 340.053 461.732 341.002ZM449.864 341.002C449.864 341.95 449.105 342.719 448.168 342.719C447.232 342.719 446.473 341.95 446.473 341.002C446.473 340.053 447.232 339.284 448.168 339.284C449.105 339.284 449.864 340.053 449.864 341.002ZM437.995 341.002C437.995 341.95 437.236 342.719 436.3 342.719C435.364 342.719 434.605 341.95 434.605 341.002C434.605 340.053 435.364 339.284 436.3 339.284C437.236 339.284 437.995 340.053 437.995 341.002ZM426.127 341.002C426.127 341.95 425.368 342.719 424.432 342.719C423.495 342.719 422.736 341.95 422.736 341.002C422.736 340.053 423.495 339.284 424.432 339.284C425.368 339.284 426.127 340.053 426.127 341.002ZM414.259 341.002C414.259 341.95 413.5 342.719 412.564 342.719C411.627 342.719 410.868 341.95 410.868 341.002C410.868 340.053 411.627 339.284 412.564 339.284C413.5 339.284 414.259 340.053 414.259 341.002ZM402.391 341.002C402.391 341.95 401.632 342.719 400.695 342.719C399.759 342.719 399 341.95 399 341.002C399 340.053 399.759 339.284 400.695 339.284C401.632 339.284 402.391 340.053 402.391 341.002ZM461.732 352.286C461.732 353.234 460.973 354.003 460.036 354.003C459.1 354.003 458.341 353.234 458.341 352.286C458.341 351.338 459.1 350.569 460.036 350.569C460.973 350.569 461.732 351.338 461.732 352.286ZM449.864 352.286C449.864 353.234 449.105 354.003 448.168 354.003C447.232 354.003 446.473 353.234 446.473 352.286C446.473 351.338 447.232 350.569 448.168 350.569C449.105 350.569 449.864 351.338 449.864 352.286ZM437.995 352.286C437.995 353.234 437.236 354.003 436.3 354.003C435.364 354.003 434.605 353.234 434.605 352.286C434.605 351.338 435.364 350.569 436.3 350.569C437.236 350.569 437.995 351.338 437.995 352.286ZM426.127 352.286C426.127 353.234 425.368 354.003 424.432 354.003C423.495 354.003 422.736 353.234 422.736 352.286C422.736 351.338 423.495 350.569 424.432 350.569C425.368 350.569 426.127 351.338 426.127 352.286ZM414.259 352.286C414.259 353.234 413.5 354.003 412.564 354.003C411.627 354.003 410.868 353.234 410.868 352.286C410.868 351.338 411.627 350.569 412.564 350.569C413.5 350.569 414.259 351.338 414.259 352.286ZM402.391 352.286C402.391 353.234 401.632 354.003 400.695 354.003C399.759 354.003 399 353.234 399 352.286C399 351.338 399.759 350.569 400.695 350.569C401.632 350.569 402.391 351.338 402.391 352.286ZM461.732 364.061C461.732 365.009 460.973 365.778 460.036 365.778C459.1 365.778 458.341 365.009 458.341 364.061C458.341 363.113 459.1 362.344 460.036 362.344C460.973 362.344 461.732 363.113 461.732 364.061ZM449.864 364.061C449.864 365.009 449.105 365.778 448.168 365.778C447.232 365.778 446.473 365.009 446.473 364.061C446.473 363.113 447.232 362.344 448.168 362.344C449.105 362.344 449.864 363.113 449.864 364.061ZM437.995 364.061C437.995 365.009 437.236 365.778 436.3 365.778C435.364 365.778 434.605 365.009 434.605 364.061C434.605 363.113 435.364 362.344 436.3 362.344C437.236 362.344 437.995 363.113 437.995 364.061ZM426.127 364.061C426.127 365.009 425.368 365.778 424.432 365.778C423.495 365.778 422.736 365.009 422.736 364.061C422.736 363.113 423.495 362.344 424.432 362.344C425.368 362.344 426.127 363.113 426.127 364.061ZM414.259 364.061C414.259 365.009 413.5 365.778 412.564 365.778C411.627 365.778 410.868 365.009 410.868 364.061C410.868 363.113 411.627 362.344 412.564 362.344C413.5 362.344 414.259 363.113 414.259 364.061ZM402.391 364.061C402.391 365.009 401.632 365.778 400.695 365.778C399.759 365.778 399 365.009 399 364.061C399 363.113 399.759 362.344 400.695 362.344C401.632 362.344 402.391 363.113 402.391 364.061ZM461.732 375.346C461.732 376.294 460.973 377.063 460.036 377.063C459.1 377.063 458.341 376.294 458.341 375.346C458.341 374.397 459.1 373.628 460.036 373.628C460.973 373.628 461.732 374.397 461.732 375.346ZM449.864 375.346C449.864 376.294 449.105 377.063 448.168 377.063C447.232 377.063 446.473 376.294 446.473 375.346C446.473 374.397 447.232 373.628 448.168 373.628C449.105 373.628 449.864 374.397 449.864 375.346ZM437.995 375.346C437.995 376.294 437.236 377.063 436.3 377.063C435.364 377.063 434.605 376.294 434.605 375.346C434.605 374.397 435.364 373.628 436.3 373.628C437.236 373.628 437.995 374.397 437.995 375.346ZM426.127 375.346C426.127 376.294 425.368 377.063 424.432 377.063C423.495 377.063 422.736 376.294 422.736 375.346C422.736 374.397 423.495 373.628 424.432 373.628C425.368 373.628 426.127 374.397 426.127 375.346ZM414.259 375.346C414.259 376.294 413.5 377.063 412.564 377.063C411.627 377.063 410.868 376.294 410.868 375.346C410.868 374.397 411.627 373.628 412.564 373.628C413.5 373.628 414.259 374.397 414.259 375.346ZM402.391 375.346C402.391 376.294 401.632 377.063 400.695 377.063C399.759 377.063 399 376.294 399 375.346C399 374.397 399.759 373.628 400.695 373.628C401.632 373.628 402.391 374.397 402.391 375.346ZM461.732 386.63C461.732 387.578 460.973 388.347 460.036 388.347C459.1 388.347 458.341 387.578 458.341 386.63C458.341 385.682 459.1 384.913 460.036 384.913C460.973 384.913 461.732 385.682 461.732 386.63ZM449.864 386.63C449.864 387.578 449.105 388.347 448.168 388.347C447.232 388.347 446.473 387.578 446.473 386.63C446.473 385.682 447.232 384.913 448.168 384.913C449.105 384.913 449.864 385.682 449.864 386.63ZM437.995 386.63C437.995 387.578 437.236 388.347 436.3 388.347C435.364 388.347 434.605 387.578 434.605 386.63C434.605 385.682 435.364 384.913 436.3 384.913C437.236 384.913 437.995 385.682 437.995 386.63ZM426.127 386.63C426.127 387.578 425.368 388.347 424.432 388.347C423.495 388.347 422.736 387.578 422.736 386.63C422.736 385.682 423.495 384.913 424.432 384.913C425.368 384.913 426.127 385.682 426.127 386.63ZM414.259 386.63C414.259 387.578 413.5 388.347 412.564 388.347C411.627 388.347 410.868 387.578 410.868 386.63C410.868 385.682 411.627 384.913 412.564 384.913C413.5 384.913 414.259 385.682 414.259 386.63ZM402.391 386.63C402.391 387.578 401.632 388.347 400.695 388.347C399.759 388.347 399 387.578 399 386.63C399 385.682 399.759 384.913 400.695 384.913C401.632 384.913 402.391 385.682 402.391 386.63ZM533.176 329.717C533.176 330.666 532.417 331.434 531.481 331.434C530.544 331.434 529.785 330.666 529.785 329.717C529.785 328.769 530.544 328 531.481 328C532.417 328 533.176 328.769 533.176 329.717ZM521.308 329.717C521.308 330.666 520.549 331.434 519.613 331.434C518.676 331.434 517.917 330.666 517.917 329.717C517.917 328.769 518.676 328 519.613 328C520.549 328 521.308 328.769 521.308 329.717ZM509.44 329.717C509.44 330.666 508.681 331.434 507.744 331.434C506.808 331.434 506.049 330.666 506.049 329.717C506.049 328.769 506.808 328 507.744 328C508.681 328 509.44 328.769 509.44 329.717ZM497.572 329.717C497.572 330.666 496.813 331.434 495.876 331.434C494.94 331.434 494.181 330.666 494.181 329.717C494.181 328.769 494.94 328 495.876 328C496.813 328 497.572 328.769 497.572 329.717ZM485.704 329.717C485.704 330.666 484.945 331.434 484.008 331.434C483.072 331.434 482.313 330.666 482.313 329.717C482.313 328.769 483.072 328 484.008 328C484.945 328 485.704 328.769 485.704 329.717ZM473.835 329.717C473.835 330.666 473.076 331.434 472.14 331.434C471.204 331.434 470.445 330.666 470.445 329.717C470.445 328.769 471.204 328 472.14 328C473.076 328 473.835 328.769 473.835 329.717ZM533.176 341.002C533.176 341.95 532.417 342.719 531.481 342.719C530.544 342.719 529.785 341.95 529.785 341.002C529.785 340.053 530.544 339.284 531.481 339.284C532.417 339.284 533.176 340.053 533.176 341.002ZM521.308 341.002C521.308 341.95 520.549 342.719 519.613 342.719C518.676 342.719 517.917 341.95 517.917 341.002C517.917 340.053 518.676 339.284 519.613 339.284C520.549 339.284 521.308 340.053 521.308 341.002ZM509.44 341.002C509.44 341.95 508.681 342.719 507.744 342.719C506.808 342.719 506.049 341.95 506.049 341.002C506.049 340.053 506.808 339.284 507.744 339.284C508.681 339.284 509.44 340.053 509.44 341.002ZM497.572 341.002C497.572 341.95 496.813 342.719 495.876 342.719C494.94 342.719 494.181 341.95 494.181 341.002C494.181 340.053 494.94 339.284 495.876 339.284C496.813 339.284 497.572 340.053 497.572 341.002ZM485.704 341.002C485.704 341.95 484.945 342.719 484.008 342.719C483.072 342.719 482.313 341.95 482.313 341.002C482.313 340.053 483.072 339.284 484.008 339.284C484.945 339.284 485.704 340.053 485.704 341.002ZM473.835 341.002C473.835 341.95 473.076 342.719 472.14 342.719C471.204 342.719 470.445 341.95 470.445 341.002C470.445 340.053 471.204 339.284 472.14 339.284C473.076 339.284 473.835 340.053 473.835 341.002ZM533.176 352.286C533.176 353.234 532.417 354.003 531.481 354.003C530.544 354.003 529.785 353.234 529.785 352.286C529.785 351.338 530.544 350.569 531.481 350.569C532.417 350.569 533.176 351.338 533.176 352.286ZM521.308 352.286C521.308 353.234 520.549 354.003 519.613 354.003C518.676 354.003 517.917 353.234 517.917 352.286C517.917 351.338 518.676 350.569 519.613 350.569C520.549 350.569 521.308 351.338 521.308 352.286ZM509.44 352.286C509.44 353.234 508.681 354.003 507.744 354.003C506.808 354.003 506.049 353.234 506.049 352.286C506.049 351.338 506.808 350.569 507.744 350.569C508.681 350.569 509.44 351.338 509.44 352.286ZM497.572 352.286C497.572 353.234 496.813 354.003 495.876 354.003C494.94 354.003 494.181 353.234 494.181 352.286C494.181 351.338 494.94 350.569 495.876 350.569C496.813 350.569 497.572 351.338 497.572 352.286ZM485.704 352.286C485.704 353.234 484.945 354.003 484.008 354.003C483.072 354.003 482.313 353.234 482.313 352.286C482.313 351.338 483.072 350.569 484.008 350.569C484.945 350.569 485.704 351.338 485.704 352.286ZM473.835 352.286C473.835 353.234 473.076 354.003 472.14 354.003C471.204 354.003 470.445 353.234 470.445 352.286C470.445 351.338 471.204 350.569 472.14 350.569C473.076 350.569 473.835 351.338 473.835 352.286ZM533.176 364.061C533.176 365.01 532.417 365.778 531.481 365.778C530.544 365.778 529.785 365.01 529.785 364.061C529.785 363.113 530.544 362.344 531.481 362.344C532.417 362.344 533.176 363.113 533.176 364.061ZM521.308 364.061C521.308 365.009 520.549 365.778 519.613 365.778C518.676 365.778 517.917 365.009 517.917 364.061C517.917 363.113 518.676 362.344 519.613 362.344C520.549 362.344 521.308 363.113 521.308 364.061ZM509.44 364.061C509.44 365.009 508.681 365.778 507.744 365.778C506.808 365.778 506.049 365.009 506.049 364.061C506.049 363.113 506.808 362.344 507.744 362.344C508.681 362.344 509.44 363.113 509.44 364.061ZM497.572 364.061C497.572 365.009 496.813 365.778 495.876 365.778C494.94 365.778 494.181 365.009 494.181 364.061C494.181 363.113 494.94 362.344 495.876 362.344C496.813 362.344 497.572 363.113 497.572 364.061ZM485.704 364.061C485.704 365.009 484.945 365.778 484.008 365.778C483.072 365.778 482.313 365.009 482.313 364.061C482.313 363.113 483.072 362.344 484.008 362.344C484.945 362.344 485.704 363.113 485.704 364.061ZM473.835 364.061C473.835 365.009 473.076 365.778 472.14 365.778C471.204 365.778 470.445 365.009 470.445 364.061C470.445 363.113 471.204 362.344 472.14 362.344C473.076 362.344 473.835 363.113 473.835 364.061ZM533.176 375.346C533.176 376.294 532.417 377.063 531.481 377.063C530.544 377.063 529.785 376.294 529.785 375.346C529.785 374.397 530.544 373.628 531.481 373.628C532.417 373.628 533.176 374.397 533.176 375.346ZM521.308 375.346C521.308 376.294 520.549 377.063 519.613 377.063C518.676 377.063 517.917 376.294 517.917 375.346C517.917 374.397 518.676 373.628 519.613 373.628C520.549 373.628 521.308 374.397 521.308 375.346ZM509.44 375.346C509.44 376.294 508.681 377.063 507.744 377.063C506.808 377.063 506.049 376.294 506.049 375.346C506.049 374.397 506.808 373.628 507.744 373.628C508.681 373.628 509.44 374.397 509.44 375.346ZM497.572 375.346C497.572 376.294 496.813 377.063 495.876 377.063C494.94 377.063 494.181 376.294 494.181 375.346C494.181 374.397 494.94 373.628 495.876 373.628C496.813 373.628 497.572 374.397 497.572 375.346ZM485.704 375.346C485.704 376.294 484.945 377.063 484.008 377.063C483.072 377.063 482.313 376.294 482.313 375.346C482.313 374.397 483.072 373.628 484.008 373.628C484.945 373.628 485.704 374.397 485.704 375.346ZM473.835 375.346C473.835 376.294 473.076 377.063 472.14 377.063C471.204 377.063 470.445 376.294 470.445 375.346C470.445 374.397 471.204 373.628 472.14 373.628C473.076 373.628 473.835 374.397 473.835 375.346ZM533.176 386.63C533.176 387.578 532.417 388.347 531.481 388.347C530.544 388.347 529.785 387.578 529.785 386.63C529.785 385.682 530.544 384.913 531.481 384.913C532.417 384.913 533.176 385.682 533.176 386.63ZM521.308 386.63C521.308 387.578 520.549 388.347 519.613 388.347C518.676 388.347 517.917 387.578 517.917 386.63C517.917 385.682 518.676 384.913 519.613 384.913C520.549 384.913 521.308 385.682 521.308 386.63ZM509.44 386.63C509.44 387.578 508.681 388.347 507.744 388.347C506.808 388.347 506.049 387.578 506.049 386.63C506.049 385.682 506.808 384.913 507.744 384.913C508.681 384.913 509.44 385.682 509.44 386.63ZM497.572 386.63C497.572 387.578 496.813 388.347 495.876 388.347C494.94 388.347 494.181 387.578 494.181 386.63C494.181 385.682 494.94 384.913 495.876 384.913C496.813 384.913 497.572 385.682 497.572 386.63ZM485.704 386.63C485.704 387.578 484.945 388.347 484.008 388.347C483.072 388.347 482.313 387.578 482.313 386.63C482.313 385.682 483.072 384.913 484.008 384.913C484.945 384.913 485.704 385.682 485.704 386.63ZM473.835 386.63C473.835 387.578 473.076 388.347 472.14 388.347C471.204 388.347 470.445 387.578 470.445 386.63C470.445 385.682 471.204 384.913 472.14 384.913C473.076 384.913 473.835 385.682 473.835 386.63Z" fill="#C9E7E8"/>
<path fill-rule="evenodd" clip-rule="evenodd" d="M435.732 415.717C435.732 416.666 434.973 417.435 434.037 417.435C433.1 417.435 432.341 416.666 432.341 415.717C432.341 414.769 433.1 414 434.037 414C434.973 414 435.732 414.769 435.732 415.717ZM423.864 415.717C423.864 416.666 423.105 417.435 422.168 417.435C421.232 417.435 420.473 416.666 420.473 415.717C420.473 414.769 421.232 414 422.168 414C423.105 414 423.864 414.769 423.864 415.717ZM411.996 415.717C411.996 416.666 411.237 417.435 410.3 417.435C409.364 417.435 408.605 416.666 408.605 415.717C408.605 414.769 409.364 414 410.3 414C411.237 414 411.996 414.769 411.996 415.717ZM400.128 415.717C400.128 416.666 399.368 417.435 398.432 417.435C397.496 417.435 396.737 416.666 396.737 415.717C396.737 414.769 397.496 414 398.432 414C399.368 414 400.128 414.769 400.128 415.717ZM388.259 415.717C388.259 416.666 387.5 417.435 386.564 417.435C385.628 417.435 384.868 416.666 384.868 415.717C384.868 414.769 385.628 414 386.564 414C387.5 414 388.259 414.769 388.259 415.717ZM376.391 415.717C376.391 416.666 375.632 417.435 374.696 417.435C373.759 417.435 373 416.666 373 415.717C373 414.769 373.759 414 374.696 414C375.632 414 376.391 414.769 376.391 415.717ZM435.732 427.002C435.732 427.95 434.973 428.719 434.037 428.719C433.1 428.719 432.341 427.95 432.341 427.002C432.341 426.053 433.1 425.285 434.037 425.285C434.973 425.285 435.732 426.053 435.732 427.002ZM423.864 427.002C423.864 427.95 423.105 428.719 422.168 428.719C421.232 428.719 420.473 427.95 420.473 427.002C420.473 426.053 421.232 425.285 422.168 425.285C423.105 425.285 423.864 426.053 423.864 427.002ZM411.996 427.002C411.996 427.95 411.237 428.719 410.3 428.719C409.364 428.719 408.605 427.95 408.605 427.002C408.605 426.053 409.364 425.285 410.3 425.285C411.237 425.285 411.996 426.053 411.996 427.002ZM400.128 427.002C400.128 427.95 399.368 428.719 398.432 428.719C397.496 428.719 396.737 427.95 396.737 427.002C396.737 426.053 397.496 425.285 398.432 425.285C399.368 425.285 400.128 426.053 400.128 427.002ZM388.259 427.002C388.259 427.95 387.5 428.719 386.564 428.719C385.628 428.719 384.868 427.95 384.868 427.002C384.868 426.053 385.628 425.285 386.564 425.285C387.5 425.285 388.259 426.053 388.259 427.002ZM376.391 427.002C376.391 427.95 375.632 428.719 374.696 428.719C373.759 428.719 373 427.95 373 427.002C373 426.053 373.759 425.285 374.696 425.285C375.632 425.285 376.391 426.053 376.391 427.002ZM435.732 438.286C435.732 439.235 434.973 440.003 434.037 440.003C433.1 440.003 432.341 439.235 432.341 438.286C432.341 437.338 433.1 436.569 434.037 436.569C434.973 436.569 435.732 437.338 435.732 438.286ZM423.864 438.286C423.864 439.235 423.105 440.003 422.168 440.003C421.232 440.003 420.473 439.235 420.473 438.286C420.473 437.338 421.232 436.569 422.168 436.569C423.105 436.569 423.864 437.338 423.864 438.286ZM411.996 438.286C411.996 439.235 411.237 440.003 410.3 440.003C409.364 440.003 408.605 439.235 408.605 438.286C408.605 437.338 409.364 436.569 410.3 436.569C411.237 436.569 411.996 437.338 411.996 438.286ZM400.127 438.286C400.127 439.235 399.368 440.003 398.432 440.003C397.496 440.003 396.737 439.235 396.737 438.286C396.737 437.338 397.496 436.569 398.432 436.569C399.368 436.569 400.127 437.338 400.127 438.286ZM388.259 438.286C388.259 439.235 387.5 440.003 386.564 440.003C385.628 440.003 384.868 439.235 384.868 438.286C384.868 437.338 385.628 436.569 386.564 436.569C387.5 436.569 388.259 437.338 388.259 438.286ZM376.391 438.286C376.391 439.235 375.632 440.003 374.696 440.003C373.759 440.003 373 439.235 373 438.286C373 437.338 373.759 436.569 374.696 436.569C375.632 436.569 376.391 437.338 376.391 438.286ZM435.732 450.061C435.732 451.01 434.973 451.779 434.037 451.779C433.1 451.779 432.341 451.01 432.341 450.061C432.341 449.113 433.1 448.344 434.037 448.344C434.973 448.344 435.732 449.113 435.732 450.061ZM423.864 450.061C423.864 451.01 423.105 451.779 422.168 451.779C421.232 451.779 420.473 451.01 420.473 450.061C420.473 449.113 421.232 448.344 422.168 448.344C423.105 448.344 423.864 449.113 423.864 450.061ZM411.996 450.061C411.996 451.01 411.237 451.779 410.3 451.779C409.364 451.779 408.605 451.01 408.605 450.061C408.605 449.113 409.364 448.344 410.3 448.344C411.237 448.344 411.996 449.113 411.996 450.061ZM400.127 450.061C400.127 451.01 399.368 451.779 398.432 451.779C397.496 451.779 396.737 451.01 396.737 450.061C396.737 449.113 397.496 448.344 398.432 448.344C399.368 448.344 400.127 449.113 400.127 450.061ZM388.259 450.061C388.259 451.01 387.5 451.779 386.564 451.779C385.628 451.779 384.868 451.01 384.868 450.061C384.868 449.113 385.628 448.344 386.564 448.344C387.5 448.344 388.259 449.113 388.259 450.061ZM376.391 450.061C376.391 451.01 375.632 451.779 374.696 451.779C373.759 451.779 373 451.01 373 450.061C373 449.113 373.759 448.344 374.696 448.344C375.632 448.344 376.391 449.113 376.391 450.061ZM435.732 461.346C435.732 462.294 434.973 463.063 434.037 463.063C433.1 463.063 432.341 462.294 432.341 461.346C432.341 460.397 433.1 459.629 434.037 459.629C434.973 459.629 435.732 460.397 435.732 461.346ZM423.864 461.346C423.864 462.294 423.105 463.063 422.168 463.063C421.232 463.063 420.473 462.294 420.473 461.346C420.473 460.397 421.232 459.629 422.168 459.629C423.105 459.629 423.864 460.397 423.864 461.346ZM411.996 461.346C411.996 462.294 411.237 463.063 410.3 463.063C409.364 463.063 408.605 462.294 408.605 461.346C408.605 460.397 409.364 459.629 410.3 459.629C411.237 459.629 411.996 460.397 411.996 461.346ZM400.127 461.346C400.127 462.294 399.368 463.063 398.432 463.063C397.496 463.063 396.737 462.294 396.737 461.346C396.737 460.397 397.496 459.629 398.432 459.629C399.368 459.629 400.127 460.397 400.127 461.346ZM388.259 461.346C388.259 462.294 387.5 463.063 386.564 463.063C385.628 463.063 384.868 462.294 384.868 461.346C384.868 460.397 385.628 459.629 386.564 459.629C387.5 459.629 388.259 460.397 388.259 461.346ZM376.391 461.346C376.391 462.294 375.632 463.063 374.696 463.063C373.759 463.063 373 462.294 373 461.346C373 460.397 373.759 459.629 374.696 459.629C375.632 459.629 376.391 460.397 376.391 461.346ZM435.732 472.63C435.732 473.579 434.973 474.347 434.037 474.347C433.1 474.347 432.341 473.579 432.341 472.63C432.341 471.682 433.1 470.913 434.037 470.913C434.973 470.913 435.732 471.682 435.732 472.63ZM423.864 472.63C423.864 473.579 423.105 474.347 422.168 474.347C421.232 474.347 420.473 473.579 420.473 472.63C420.473 471.682 421.232 470.913 422.168 470.913C423.105 470.913 423.864 471.682 423.864 472.63ZM411.996 472.63C411.996 473.579 411.237 474.347 410.3 474.347C409.364 474.347 408.605 473.579 408.605 472.63C408.605 471.682 409.364 470.913 410.3 470.913C411.237 470.913 411.996 471.682 411.996 472.63ZM400.127 472.63C400.127 473.579 399.368 474.347 398.432 474.347C397.496 474.347 396.737 473.579 396.737 472.63C396.737 471.682 397.496 470.913 398.432 470.913C399.368 470.913 400.127 471.682 400.127 472.63ZM388.259 472.63C388.259 473.579 387.5 474.347 386.564 474.347C385.628 474.347 384.868 473.579 384.868 472.63C384.868 471.682 385.628 470.913 386.564 470.913C387.5 470.913 388.259 471.682 388.259 472.63ZM376.391 472.63C376.391 473.579 375.632 474.347 374.696 474.347C373.759 474.347 373 473.579 373 472.63C373 471.682 373.759 470.913 374.696 470.913C375.632 470.913 376.391 471.682 376.391 472.63ZM507.177 415.717C507.177 416.666 506.417 417.435 505.481 417.435C504.545 417.435 503.786 416.666 503.786 415.717C503.786 414.769 504.545 414 505.481 414C506.417 414 507.177 414.769 507.177 415.717ZM495.308 415.717C495.308 416.666 494.549 417.435 493.613 417.435C492.677 417.435 491.917 416.666 491.917 415.717C491.917 414.769 492.677 414 493.613 414C494.549 414 495.308 414.769 495.308 415.717ZM483.44 415.717C483.44 416.666 482.681 417.435 481.745 417.435C480.808 417.435 480.049 416.666 480.049 415.717C480.049 414.769 480.808 414 481.745 414C482.681 414 483.44 414.769 483.44 415.717ZM471.572 415.717C471.572 416.666 470.813 417.435 469.877 417.435C468.94 417.435 468.181 416.666 468.181 415.717C468.181 414.769 468.94 414 469.877 414C470.813 414 471.572 414.769 471.572 415.717ZM459.704 415.717C459.704 416.666 458.945 417.435 458.008 417.435C457.072 417.435 456.313 416.666 456.313 415.717C456.313 414.769 457.072 414 458.008 414C458.945 414 459.704 414.769 459.704 415.717ZM447.836 415.717C447.836 416.666 447.077 417.435 446.14 417.435C445.204 417.435 444.445 416.666 444.445 415.717C444.445 414.769 445.204 414 446.14 414C447.077 414 447.836 414.769 447.836 415.717ZM507.177 427.002C507.177 427.95 506.417 428.719 505.481 428.719C504.545 428.719 503.786 427.95 503.786 427.002C503.786 426.053 504.545 425.285 505.481 425.285C506.417 425.285 507.177 426.053 507.177 427.002ZM495.308 427.002C495.308 427.95 494.549 428.719 493.613 428.719C492.677 428.719 491.917 427.95 491.917 427.002C491.917 426.053 492.677 425.285 493.613 425.285C494.549 425.285 495.308 426.053 495.308 427.002ZM483.44 427.002C483.44 427.95 482.681 428.719 481.745 428.719C480.808 428.719 480.049 427.95 480.049 427.002C480.049 426.053 480.808 425.285 481.745 425.285C482.681 425.285 483.44 426.053 483.44 427.002ZM471.572 427.002C471.572 427.95 470.813 428.719 469.877 428.719C468.94 428.719 468.181 427.95 468.181 427.002C468.181 426.053 468.94 425.285 469.877 425.285C470.813 425.285 471.572 426.053 471.572 427.002ZM459.704 427.002C459.704 427.95 458.945 428.719 458.008 428.719C457.072 428.719 456.313 427.95 456.313 427.002C456.313 426.053 457.072 425.285 458.008 425.285C458.945 425.285 459.704 426.053 459.704 427.002ZM447.836 427.002C447.836 427.95 447.077 428.719 446.14 428.719C445.204 428.719 444.445 427.95 444.445 427.002C444.445 426.053 445.204 425.285 446.14 425.285C447.077 425.285 447.836 426.053 447.836 427.002ZM507.177 438.286C507.177 439.235 506.417 440.003 505.481 440.003C504.545 440.003 503.786 439.235 503.786 438.286C503.786 437.338 504.545 436.569 505.481 436.569C506.417 436.569 507.177 437.338 507.177 438.286ZM495.308 438.286C495.308 439.235 494.549 440.003 493.613 440.003C492.677 440.003 491.917 439.235 491.917 438.286C491.917 437.338 492.677 436.569 493.613 436.569C494.549 436.569 495.308 437.338 495.308 438.286ZM483.44 438.286C483.44 439.235 482.681 440.003 481.745 440.003C480.808 440.003 480.049 439.235 480.049 438.286C480.049 437.338 480.808 436.569 481.745 436.569C482.681 436.569 483.44 437.338 483.44 438.286ZM471.572 438.286C471.572 439.235 470.813 440.003 469.877 440.003C468.94 440.003 468.181 439.235 468.181 438.286C468.181 437.338 468.94 436.569 469.877 436.569C470.813 436.569 471.572 437.338 471.572 438.286ZM459.704 438.286C459.704 439.235 458.945 440.003 458.008 440.003C457.072 440.003 456.313 439.235 456.313 438.286C456.313 437.338 457.072 436.569 458.008 436.569C458.945 436.569 459.704 437.338 459.704 438.286ZM447.836 438.286C447.836 439.235 447.077 440.003 446.14 440.003C445.204 440.003 444.445 439.235 444.445 438.286C444.445 437.338 445.204 436.569 446.14 436.569C447.077 436.569 447.836 437.338 447.836 438.286ZM507.177 450.061C507.177 451.01 506.417 451.779 505.481 451.779C504.545 451.779 503.786 451.01 503.786 450.061C503.786 449.113 504.545 448.344 505.481 448.344C506.417 448.344 507.177 449.113 507.177 450.061ZM495.308 450.061C495.308 451.01 494.549 451.779 493.613 451.779C492.677 451.779 491.917 451.01 491.917 450.061C491.917 449.113 492.677 448.344 493.613 448.344C494.549 448.344 495.308 449.113 495.308 450.061ZM483.44 450.061C483.44 451.01 482.681 451.779 481.745 451.779C480.808 451.779 480.049 451.01 480.049 450.061C480.049 449.113 480.808 448.344 481.745 448.344C482.681 448.344 483.44 449.113 483.44 450.061ZM471.572 450.061C471.572 451.01 470.813 451.779 469.877 451.779C468.94 451.779 468.181 451.01 468.181 450.061C468.181 449.113 468.94 448.344 469.877 448.344C470.813 448.344 471.572 449.113 471.572 450.061ZM459.704 450.061C459.704 451.01 458.945 451.779 458.008 451.779C457.072 451.779 456.313 451.01 456.313 450.061C456.313 449.113 457.072 448.344 458.008 448.344C458.945 448.344 459.704 449.113 459.704 450.061ZM447.836 450.061C447.836 451.01 447.077 451.779 446.14 451.779C445.204 451.779 444.445 451.01 444.445 450.061C444.445 449.113 445.204 448.344 446.14 448.344C447.077 448.344 447.836 449.113 447.836 450.061ZM507.177 461.346C507.177 462.294 506.417 463.063 505.481 463.063C504.545 463.063 503.786 462.294 503.786 461.346C503.786 460.397 504.545 459.629 505.481 459.629C506.417 459.629 507.177 460.397 507.177 461.346ZM495.308 461.346C495.308 462.294 494.549 463.063 493.613 463.063C492.677 463.063 491.917 462.294 491.917 461.346C491.917 460.397 492.677 459.629 493.613 459.629C494.549 459.629 495.308 460.397 495.308 461.346ZM483.44 461.346C483.44 462.294 482.681 463.063 481.745 463.063C480.808 463.063 480.049 462.294 480.049 461.346C480.049 460.397 480.808 459.629 481.745 459.629C482.681 459.629 483.44 460.397 483.44 461.346ZM471.572 461.346C471.572 462.294 470.813 463.063 469.877 463.063C468.94 463.063 468.181 462.294 468.181 461.346C468.181 460.397 468.94 459.629 469.877 459.629C470.813 459.629 471.572 460.397 471.572 461.346ZM459.704 461.346C459.704 462.294 458.945 463.063 458.008 463.063C457.072 463.063 456.313 462.294 456.313 461.346C456.313 460.397 457.072 459.629 458.008 459.629C458.945 459.629 459.704 460.397 459.704 461.346ZM447.836 461.346C447.836 462.294 447.077 463.063 446.14 463.063C445.204 463.063 444.445 462.294 444.445 461.346C444.445 460.397 445.204 459.629 446.14 459.629C447.077 459.629 447.836 460.397 447.836 461.346ZM507.177 472.63C507.177 473.579 506.417 474.347 505.481 474.347C504.545 474.347 503.786 473.579 503.786 472.63C503.786 471.682 504.545 470.913 505.481 470.913C506.417 470.913 507.177 471.682 507.177 472.63ZM495.308 472.63C495.308 473.579 494.549 474.347 493.613 474.347C492.677 474.347 491.917 473.579 491.917 472.63C491.917 471.682 492.677 470.913 493.613 470.913C494.549 470.913 495.308 471.682 495.308 472.63ZM483.44 472.63C483.44 473.579 482.681 474.347 481.745 474.347C480.808 474.347 480.049 473.579 480.049 472.63C480.049 471.682 480.808 470.913 481.745 470.913C482.681 470.913 483.44 471.682 483.44 472.63ZM471.572 472.63C471.572 473.579 470.813 474.347 469.877 474.347C468.94 474.347 468.181 473.579 468.181 472.63C468.181 471.682 468.94 470.913 469.877 470.913C470.813 470.913 471.572 471.682 471.572 472.63ZM459.704 472.63C459.704 473.579 458.945 474.347 458.008 474.347C457.072 474.347 456.313 473.579 456.313 472.63C456.313 471.682 457.072 470.913 458.008 470.913C458.945 470.913 459.704 471.682 459.704 472.63ZM447.836 472.63C447.836 473.579 447.077 474.347 446.14 474.347C445.204 474.347 444.445 473.579 444.445 472.63C444.445 471.682 445.204 470.913 446.14 470.913C447.077 470.913 447.836 471.682 447.836 472.63Z" fill="#C9E7E8"/>
<path fill-rule="evenodd" clip-rule="evenodd" d="M294.732 415.717C294.732 416.666 293.973 417.435 293.037 417.435C292.1 417.435 291.341 416.666 291.341 415.717C291.341 414.769 292.1 414 293.037 414C293.973 414 294.732 414.769 294.732 415.717ZM282.864 415.717C282.864 416.666 282.105 417.435 281.168 417.435C280.232 417.435 279.473 416.666 279.473 415.717C279.473 414.769 280.232 414 281.168 414C282.105 414 282.864 414.769 282.864 415.717ZM270.996 415.717C270.996 416.666 270.237 417.435 269.3 417.435C268.364 417.435 267.605 416.666 267.605 415.717C267.605 414.769 268.364 414 269.3 414C270.237 414 270.996 414.769 270.996 415.717ZM259.128 415.717C259.128 416.666 258.368 417.435 257.432 417.435C256.496 417.435 255.737 416.666 255.737 415.717C255.737 414.769 256.496 414 257.432 414C258.368 414 259.128 414.769 259.128 415.717ZM247.259 415.717C247.259 416.666 246.5 417.435 245.564 417.435C244.628 417.435 243.868 416.666 243.868 415.717C243.868 414.769 244.628 414 245.564 414C246.5 414 247.259 414.769 247.259 415.717ZM235.391 415.717C235.391 416.666 234.632 417.435 233.696 417.435C232.759 417.435 232 416.666 232 415.717C232 414.769 232.759 414 233.696 414C234.632 414 235.391 414.769 235.391 415.717ZM294.732 427.002C294.732 427.95 293.973 428.719 293.037 428.719C292.1 428.719 291.341 427.95 291.341 427.002C291.341 426.053 292.1 425.285 293.037 425.285C293.973 425.285 294.732 426.053 294.732 427.002ZM282.864 427.002C282.864 427.95 282.105 428.719 281.168 428.719C280.232 428.719 279.473 427.95 279.473 427.002C279.473 426.053 280.232 425.285 281.168 425.285C282.105 425.285 282.864 426.053 282.864 427.002ZM270.996 427.002C270.996 427.95 270.237 428.719 269.3 428.719C268.364 428.719 267.605 427.95 267.605 427.002C267.605 426.053 268.364 425.285 269.3 425.285C270.237 425.285 270.996 426.053 270.996 427.002ZM259.128 427.002C259.128 427.95 258.368 428.719 257.432 428.719C256.496 428.719 255.737 427.95 255.737 427.002C255.737 426.053 256.496 425.285 257.432 425.285C258.368 425.285 259.128 426.053 259.128 427.002ZM247.259 427.002C247.259 427.95 246.5 428.719 245.564 428.719C244.628 428.719 243.868 427.95 243.868 427.002C243.868 426.053 244.628 425.285 245.564 425.285C246.5 425.285 247.259 426.053 247.259 427.002ZM235.391 427.002C235.391 427.95 234.632 428.719 233.696 428.719C232.759 428.719 232 427.95 232 427.002C232 426.053 232.759 425.285 233.696 425.285C234.632 425.285 235.391 426.053 235.391 427.002ZM294.732 438.286C294.732 439.235 293.973 440.003 293.037 440.003C292.1 440.003 291.341 439.235 291.341 438.286C291.341 437.338 292.1 436.569 293.037 436.569C293.973 436.569 294.732 437.338 294.732 438.286ZM282.864 438.286C282.864 439.235 282.105 440.003 281.168 440.003C280.232 440.003 279.473 439.235 279.473 438.286C279.473 437.338 280.232 436.569 281.168 436.569C282.105 436.569 282.864 437.338 282.864 438.286ZM270.996 438.286C270.996 439.235 270.237 440.003 269.3 440.003C268.364 440.003 267.605 439.235 267.605 438.286C267.605 437.338 268.364 436.569 269.3 436.569C270.237 436.569 270.996 437.338 270.996 438.286ZM259.127 438.286C259.127 439.235 258.368 440.003 257.432 440.003C256.496 440.003 255.737 439.235 255.737 438.286C255.737 437.338 256.496 436.569 257.432 436.569C258.368 436.569 259.127 437.338 259.127 438.286ZM247.259 438.286C247.259 439.235 246.5 440.003 245.564 440.003C244.628 440.003 243.868 439.235 243.868 438.286C243.868 437.338 244.628 436.569 245.564 436.569C246.5 436.569 247.259 437.338 247.259 438.286ZM235.391 438.286C235.391 439.235 234.632 440.003 233.696 440.003C232.759 440.003 232 439.235 232 438.286C232 437.338 232.759 436.569 233.696 436.569C234.632 436.569 235.391 437.338 235.391 438.286ZM294.732 450.061C294.732 451.01 293.973 451.779 293.037 451.779C292.1 451.779 291.341 451.01 291.341 450.061C291.341 449.113 292.1 448.344 293.037 448.344C293.973 448.344 294.732 449.113 294.732 450.061ZM282.864 450.061C282.864 451.01 282.105 451.779 281.168 451.779C280.232 451.779 279.473 451.01 279.473 450.061C279.473 449.113 280.232 448.344 281.168 448.344C282.105 448.344 282.864 449.113 282.864 450.061ZM270.996 450.061C270.996 451.01 270.237 451.779 269.3 451.779C268.364 451.779 267.605 451.01 267.605 450.061C267.605 449.113 268.364 448.344 269.3 448.344C270.237 448.344 270.996 449.113 270.996 450.061ZM259.127 450.061C259.127 451.01 258.368 451.779 257.432 451.779C256.496 451.779 255.737 451.01 255.737 450.061C255.737 449.113 256.496 448.344 257.432 448.344C258.368 448.344 259.127 449.113 259.127 450.061ZM247.259 450.061C247.259 451.01 246.5 451.779 245.564 451.779C244.628 451.779 243.868 451.01 243.868 450.061C243.868 449.113 244.628 448.344 245.564 448.344C246.5 448.344 247.259 449.113 247.259 450.061ZM235.391 450.061C235.391 451.01 234.632 451.779 233.696 451.779C232.759 451.779 232 451.01 232 450.061C232 449.113 232.759 448.344 233.696 448.344C234.632 448.344 235.391 449.113 235.391 450.061ZM294.732 461.346C294.732 462.294 293.973 463.063 293.037 463.063C292.1 463.063 291.341 462.294 291.341 461.346C291.341 460.397 292.1 459.629 293.037 459.629C293.973 459.629 294.732 460.397 294.732 461.346ZM282.864 461.346C282.864 462.294 282.105 463.063 281.168 463.063C280.232 463.063 279.473 462.294 279.473 461.346C279.473 460.397 280.232 459.629 281.168 459.629C282.105 459.629 282.864 460.397 282.864 461.346ZM270.996 461.346C270.996 462.294 270.237 463.063 269.3 463.063C268.364 463.063 267.605 462.294 267.605 461.346C267.605 460.397 268.364 459.629 269.3 459.629C270.237 459.629 270.996 460.397 270.996 461.346ZM259.127 461.346C259.127 462.294 258.368 463.063 257.432 463.063C256.496 463.063 255.737 462.294 255.737 461.346C255.737 460.397 256.496 459.629 257.432 459.629C258.368 459.629 259.127 460.397 259.127 461.346ZM247.259 461.346C247.259 462.294 246.5 463.063 245.564 463.063C244.628 463.063 243.868 462.294 243.868 461.346C243.868 460.397 244.628 459.629 245.564 459.629C246.5 459.629 247.259 460.397 247.259 461.346ZM235.391 461.346C235.391 462.294 234.632 463.063 233.696 463.063C232.759 463.063 232 462.294 232 461.346C232 460.397 232.759 459.629 233.696 459.629C234.632 459.629 235.391 460.397 235.391 461.346ZM294.732 472.63C294.732 473.579 293.973 474.347 293.037 474.347C292.1 474.347 291.341 473.579 291.341 472.63C291.341 471.682 292.1 470.913 293.037 470.913C293.973 470.913 294.732 471.682 294.732 472.63ZM282.864 472.63C282.864 473.579 282.105 474.347 281.168 474.347C280.232 474.347 279.473 473.579 279.473 472.63C279.473 471.682 280.232 470.913 281.168 470.913C282.105 470.913 282.864 471.682 282.864 472.63ZM270.996 472.63C270.996 473.579 270.237 474.347 269.3 474.347C268.364 474.347 267.605 473.579 267.605 472.63C267.605 471.682 268.364 470.913 269.3 470.913C270.237 470.913 270.996 471.682 270.996 472.63ZM259.127 472.63C259.127 473.579 258.368 474.347 257.432 474.347C256.496 474.347 255.737 473.579 255.737 472.63C255.737 471.682 256.496 470.913 257.432 470.913C258.368 470.913 259.127 471.682 259.127 472.63ZM247.259 472.63C247.259 473.579 246.5 474.347 245.564 474.347C244.628 474.347 243.868 473.579 243.868 472.63C243.868 471.682 244.628 470.913 245.564 470.913C246.5 470.913 247.259 471.682 247.259 472.63ZM235.391 472.63C235.391 473.579 234.632 474.347 233.696 474.347C232.759 474.347 232 473.579 232 472.63C232 471.682 232.759 470.913 233.696 470.913C234.632 470.913 235.391 471.682 235.391 472.63ZM366.177 415.717C366.177 416.666 365.417 417.435 364.481 417.435C363.545 417.435 362.786 416.666 362.786 415.717C362.786 414.769 363.545 414 364.481 414C365.417 414 366.177 414.769 366.177 415.717ZM354.308 415.717C354.308 416.666 353.549 417.435 352.613 417.435C351.677 417.435 350.917 416.666 350.917 415.717C350.917 414.769 351.677 414 352.613 414C353.549 414 354.308 414.769 354.308 415.717ZM342.44 415.717C342.44 416.666 341.681 417.435 340.745 417.435C339.808 417.435 339.049 416.666 339.049 415.717C339.049 414.769 339.808 414 340.745 414C341.681 414 342.44 414.769 342.44 415.717ZM330.572 415.717C330.572 416.666 329.813 417.435 328.877 417.435C327.94 417.435 327.181 416.666 327.181 415.717C327.181 414.769 327.94 414 328.877 414C329.813 414 330.572 414.769 330.572 415.717ZM318.704 415.717C318.704 416.666 317.945 417.435 317.008 417.435C316.072 417.435 315.313 416.666 315.313 415.717C315.313 414.769 316.072 414 317.008 414C317.945 414 318.704 414.769 318.704 415.717ZM306.836 415.717C306.836 416.666 306.077 417.435 305.14 417.435C304.204 417.435 303.445 416.666 303.445 415.717C303.445 414.769 304.204 414 305.14 414C306.077 414 306.836 414.769 306.836 415.717ZM366.177 427.002C366.177 427.95 365.417 428.719 364.481 428.719C363.545 428.719 362.786 427.95 362.786 427.002C362.786 426.053 363.545 425.285 364.481 425.285C365.417 425.285 366.177 426.053 366.177 427.002ZM354.308 427.002C354.308 427.95 353.549 428.719 352.613 428.719C351.677 428.719 350.917 427.95 350.917 427.002C350.917 426.053 351.677 425.285 352.613 425.285C353.549 425.285 354.308 426.053 354.308 427.002ZM342.44 427.002C342.44 427.95 341.681 428.719 340.745 428.719C339.808 428.719 339.049 427.95 339.049 427.002C339.049 426.053 339.808 425.285 340.745 425.285C341.681 425.285 342.44 426.053 342.44 427.002ZM330.572 427.002C330.572 427.95 329.813 428.719 328.877 428.719C327.94 428.719 327.181 427.95 327.181 427.002C327.181 426.053 327.94 425.285 328.877 425.285C329.813 425.285 330.572 426.053 330.572 427.002ZM318.704 427.002C318.704 427.95 317.945 428.719 317.008 428.719C316.072 428.719 315.313 427.95 315.313 427.002C315.313 426.053 316.072 425.285 317.008 425.285C317.945 425.285 318.704 426.053 318.704 427.002ZM306.836 427.002C306.836 427.95 306.077 428.719 305.14 428.719C304.204 428.719 303.445 427.95 303.445 427.002C303.445 426.053 304.204 425.285 305.14 425.285C306.077 425.285 306.836 426.053 306.836 427.002ZM366.177 438.286C366.177 439.235 365.417 440.003 364.481 440.003C363.545 440.003 362.786 439.235 362.786 438.286C362.786 437.338 363.545 436.569 364.481 436.569C365.417 436.569 366.177 437.338 366.177 438.286ZM354.308 438.286C354.308 439.235 353.549 440.003 352.613 440.003C351.677 440.003 350.917 439.235 350.917 438.286C350.917 437.338 351.677 436.569 352.613 436.569C353.549 436.569 354.308 437.338 354.308 438.286ZM342.44 438.286C342.44 439.235 341.681 440.003 340.745 440.003C339.808 440.003 339.049 439.235 339.049 438.286C339.049 437.338 339.808 436.569 340.745 436.569C341.681 436.569 342.44 437.338 342.44 438.286ZM330.572 438.286C330.572 439.235 329.813 440.003 328.877 440.003C327.94 440.003 327.181 439.235 327.181 438.286C327.181 437.338 327.94 436.569 328.877 436.569C329.813 436.569 330.572 437.338 330.572 438.286ZM318.704 438.286C318.704 439.235 317.945 440.003 317.008 440.003C316.072 440.003 315.313 439.235 315.313 438.286C315.313 437.338 316.072 436.569 317.008 436.569C317.945 436.569 318.704 437.338 318.704 438.286ZM306.836 438.286C306.836 439.235 306.077 440.003 305.14 440.003C304.204 440.003 303.445 439.235 303.445 438.286C303.445 437.338 304.204 436.569 305.14 436.569C306.077 436.569 306.836 437.338 306.836 438.286ZM366.177 450.061C366.177 451.01 365.417 451.779 364.481 451.779C363.545 451.779 362.786 451.01 362.786 450.061C362.786 449.113 363.545 448.344 364.481 448.344C365.417 448.344 366.177 449.113 366.177 450.061ZM354.308 450.061C354.308 451.01 353.549 451.779 352.613 451.779C351.677 451.779 350.917 451.01 350.917 450.061C350.917 449.113 351.677 448.344 352.613 448.344C353.549 448.344 354.308 449.113 354.308 450.061ZM342.44 450.061C342.44 451.01 341.681 451.779 340.745 451.779C339.808 451.779 339.049 451.01 339.049 450.061C339.049 449.113 339.808 448.344 340.745 448.344C341.681 448.344 342.44 449.113 342.44 450.061ZM330.572 450.061C330.572 451.01 329.813 451.779 328.877 451.779C327.94 451.779 327.181 451.01 327.181 450.061C327.181 449.113 327.94 448.344 328.877 448.344C329.813 448.344 330.572 449.113 330.572 450.061ZM318.704 450.061C318.704 451.01 317.945 451.779 317.008 451.779C316.072 451.779 315.313 451.01 315.313 450.061C315.313 449.113 316.072 448.344 317.008 448.344C317.945 448.344 318.704 449.113 318.704 450.061ZM306.836 450.061C306.836 451.01 306.077 451.779 305.14 451.779C304.204 451.779 303.445 451.01 303.445 450.061C303.445 449.113 304.204 448.344 305.14 448.344C306.077 448.344 306.836 449.113 306.836 450.061ZM366.177 461.346C366.177 462.294 365.417 463.063 364.481 463.063C363.545 463.063 362.786 462.294 362.786 461.346C362.786 460.397 363.545 459.629 364.481 459.629C365.417 459.629 366.177 460.397 366.177 461.346ZM354.308 461.346C354.308 462.294 353.549 463.063 352.613 463.063C351.677 463.063 350.917 462.294 350.917 461.346C350.917 460.397 351.677 459.629 352.613 459.629C353.549 459.629 354.308 460.397 354.308 461.346ZM342.44 461.346C342.44 462.294 341.681 463.063 340.745 463.063C339.808 463.063 339.049 462.294 339.049 461.346C339.049 460.397 339.808 459.629 340.745 459.629C341.681 459.629 342.44 460.397 342.44 461.346ZM330.572 461.346C330.572 462.294 329.813 463.063 328.877 463.063C327.94 463.063 327.181 462.294 327.181 461.346C327.181 460.397 327.94 459.629 328.877 459.629C329.813 459.629 330.572 460.397 330.572 461.346ZM318.704 461.346C318.704 462.294 317.945 463.063 317.008 463.063C316.072 463.063 315.313 462.294 315.313 461.346C315.313 460.397 316.072 459.629 317.008 459.629C317.945 459.629 318.704 460.397 318.704 461.346ZM306.836 461.346C306.836 462.294 306.077 463.063 305.14 463.063C304.204 463.063 303.445 462.294 303.445 461.346C303.445 460.397 304.204 459.629 305.14 459.629C306.077 459.629 306.836 460.397 306.836 461.346ZM366.177 472.63C366.177 473.579 365.417 474.347 364.481 474.347C363.545 474.347 362.786 473.579 362.786 472.63C362.786 471.682 363.545 470.913 364.481 470.913C365.417 470.913 366.177 471.682 366.177 472.63ZM354.308 472.63C354.308 473.579 353.549 474.347 352.613 474.347C351.677 474.347 350.917 473.579 350.917 472.63C350.917 471.682 351.677 470.913 352.613 470.913C353.549 470.913 354.308 471.682 354.308 472.63ZM342.44 472.63C342.44 473.579 341.681 474.347 340.745 474.347C339.808 474.347 339.049 473.579 339.049 472.63C339.049 471.682 339.808 470.913 340.745 470.913C341.681 470.913 342.44 471.682 342.44 472.63ZM330.572 472.63C330.572 473.579 329.813 474.347 328.877 474.347C327.94 474.347 327.181 473.579 327.181 472.63C327.181 471.682 327.94 470.913 328.877 470.913C329.813 470.913 330.572 471.682 330.572 472.63ZM318.704 472.63C318.704 473.579 317.945 474.347 317.008 474.347C316.072 474.347 315.313 473.579 315.313 472.63C315.313 471.682 316.072 470.913 317.008 470.913C317.945 470.913 318.704 471.682 318.704 472.63ZM306.836 472.63C306.836 473.579 306.077 474.347 305.14 474.347C304.204 474.347 303.445 473.579 303.445 472.63C303.445 471.682 304.204 470.913 305.14 470.913C306.077 470.913 306.836 471.682 306.836 472.63Z" fill="#C9E7E8"/>
<path d="M137.659 215.806C123.675 217.753 129.534 233.834 133.464 242.516C138.078 252.707 134.037 259.54 134.037 259.54L112.421 251.878C120.354 241.805 111.593 236.195 113.75 224.184C115.684 213.41 126.186 208.55 132.822 208.779C136.134 208.893 138.844 209.745 140.99 210.837C141.072 210.878 141.15 210.923 141.224 210.97C145.144 206.951 150.57 204.548 156.841 204.548C169.738 204.548 181.325 214.708 181.325 228.197C181.325 241.686 170.87 252.621 157.973 252.621C145.077 252.621 134.622 241.686 134.622 228.197C134.622 223.586 135.711 219.365 137.659 215.806Z" fill="#5E6166"/>
<path fill-rule="evenodd" clip-rule="evenodd" d="M92.2149 475.846L101.306 466.769L98.1476 457.587L79.0435 473.317L91.9938 502.915C91.9938 502.915 93.1396 494.801 93.0811 486.514C93.0408 480.788 92.2149 475.846 92.2149 475.846ZM202.038 497.874L199.989 490.108L190.664 490.456L198.001 512.175L227.093 493.977C218.314 490.886 202.038 497.874 202.038 497.874Z" fill="#5E6166"/>
<path fill-rule="evenodd" clip-rule="evenodd" d="M99.0143 469.081L98.0151 457.578L86.8174 466.805L92.2155 475.845L99.0143 469.081ZM198.435 484.086L188.889 485.863L194.348 501.18L202.038 497.872L198.435 484.086Z" fill="#FFCA3A"/>
<path d="M150.421 431.813C135.602 461.26 110.091 486.224 110.091 486.224L87.2515 452.408C87.2515 452.408 117.679 425.734 132.039 366.834C129.626 357.156 127.91 349.185 127.308 344.076C125.332 327.346 135.299 316.082 137.973 313.394H139.2L169.25 313.393C169.892 315.779 172.438 329.151 171.557 348.85C174.21 357.651 177.316 368.275 180.914 381.028C201.397 453.622 210.896 485.636 210.896 485.636L171.957 499.503C171.957 499.503 160.779 466.086 150.421 431.813Z" fill="#5E6166"/>
<path opacity="0.14688" fill-rule="evenodd" clip-rule="evenodd" d="M210.896 485.636L171.956 499.503C171.956 499.503 160.259 464.534 149.708 429.451C143.118 407.566 136.421 384.389 132.039 366.833C129.625 357.156 127.909 349.185 127.307 344.076C125.332 327.346 135.298 316.081 137.972 313.393H160.021C161.854 318.339 165.548 328.945 171.557 348.85C174.209 357.651 177.315 368.275 180.913 381.028C201.396 453.622 210.896 485.636 210.896 485.636Z" fill="white"/>
<path fill-rule="evenodd" clip-rule="evenodd" d="M177.27 234.921C176.551 240.476 174.686 248.304 170.08 251.362C167.636 252.984 163.186 253.184 159.392 252.965L158.852 259.654L158.883 259.656C158.883 259.656 162.124 261.778 164.545 265.573C167.858 270.764 166.126 275.243 161.029 275.251C155.572 275.259 149.309 273.538 146.669 265.88C145.334 262.006 144.072 258.993 144.072 258.993L144.893 259.03C145.436 256.271 147.408 246.127 147.851 242.213C147.11 241.542 146.214 240.979 145.32 240.417C143.213 239.093 141.122 237.778 141.116 235.092C141.116 233.767 141.891 231.475 144.754 231.467C148.597 231.464 148.048 236.062 148.048 236.062C148.524 236.247 149.001 236.236 149.477 236.067C153.281 235.909 163.863 234.318 171.057 222.044C171.897 226.176 173.642 231.326 177.27 234.921ZM197.73 287.436C197.485 285.041 197.389 282.176 198.151 281.15C199.55 279.267 206.464 273.574 206.464 273.574L206.833 278.325L208.47 272.747C208.47 272.747 210.282 273.284 212.037 274.2C213.302 274.861 214.514 275.757 215.276 276.32C215.457 276.453 215.612 276.568 215.737 276.657C216.666 277.317 213.964 287.469 212.037 289.295C210.714 290.549 206.814 291.522 204.499 292.008C200.078 299.136 188.296 316.946 181.787 315.476C175.025 313.95 168.751 290.35 168.751 290.35L180.157 284.803L185.123 300.085L197.73 287.436ZM120.225 339.157L123.001 346.245C123.001 346.245 123.423 348.07 123.658 350.227L123.69 350.515C123.905 352.506 124.049 353.842 125.415 356.932C126.411 359.187 123.185 358.513 122.271 357.253C121.933 356.788 121.655 355.808 121.366 354.788C120.848 352.959 120.295 351.005 119.297 351.682C117.745 352.736 117.277 358.096 117.624 363.158C117.679 363.952 117.126 364.601 116.73 364.83C116.089 365.201 115.153 362.069 115.153 362.069C115.153 362.069 114.817 363.169 113.796 362.709C113.434 362.547 112.357 360.416 112.357 360.416C112.357 360.416 111.523 359.366 111.085 358.193C110.311 356.123 109.679 352.28 109.828 351.151C110.18 348.49 110.972 343.998 112.013 341.51C111.398 335.117 109.042 309.448 110.342 304.572C111.829 298.993 114.744 291.432 114.744 291.432L125.929 298L121.134 308.221L120.225 339.157Z" fill="#FFCA3A"/>
<path opacity="0.402786" fill-rule="evenodd" clip-rule="evenodd" d="M158.852 252.646C158.852 252.646 154.707 252.798 152.94 251.6L158.632 256.034L158.852 252.646Z" fill="#5E6166"/>
<path fill-rule="evenodd" clip-rule="evenodd" d="M169.201 236.35L171.945 242.993L168.761 242.929L169.201 236.35Z" fill="#035356"/>
<path fill-rule="evenodd" clip-rule="evenodd" d="M166.279 236.64C166.21 237.967 165.429 239.001 164.533 238.949C163.637 238.898 162.966 237.78 163.034 236.453C163.103 235.126 163.884 234.093 164.78 234.144C165.676 234.196 166.347 235.313 166.279 236.64Z" fill="#5E6166"/>
<path fill-rule="evenodd" clip-rule="evenodd" d="M174.693 236.427C174.624 237.754 173.843 238.787 172.947 238.736C172.051 238.684 171.38 237.567 171.448 236.24C171.517 234.913 172.298 233.879 173.194 233.93C174.09 233.982 174.761 235.099 174.693 236.427Z" fill="#5E6166"/>
<path fill-rule="evenodd" clip-rule="evenodd" d="M167.904 246.028C167.904 246.028 167.903 246.028 168.128 246.608C168.352 247.188 168.352 247.188 168.352 247.189L168.351 247.189L168.349 247.19L168.344 247.192L168.331 247.196C168.322 247.2 168.31 247.204 168.295 247.209C168.266 247.218 168.227 247.23 168.18 247.243C168.084 247.269 167.952 247.299 167.787 247.323C167.459 247.369 167.001 247.387 166.459 247.286C165.358 247.08 163.982 246.395 162.653 244.622L163.648 243.876C164.81 245.424 165.923 245.919 166.688 246.062C167.078 246.136 167.398 246.121 167.614 246.09C167.721 246.075 167.803 246.056 167.853 246.043C167.878 246.036 167.895 246.03 167.904 246.027C167.906 246.027 167.908 246.026 167.909 246.026C167.91 246.025 167.91 246.025 167.91 246.025L167.908 246.026L167.906 246.027L167.905 246.027L167.904 246.028Z" fill="#5E6166"/>
<path fill-rule="evenodd" clip-rule="evenodd" d="M212.251 274.345C211.221 273.755 210.241 273.314 209.76 273.426C208.92 273.622 210.458 275.823 211.58 277.272L211.568 277.327C209.757 278.055 207.383 279.134 207.001 279.923C206.735 280.475 207.776 280.655 209.065 280.679C207.879 281.248 206.843 281.862 206.602 282.361C206.294 282.999 207.738 283.14 209.292 283.117C207.92 283.742 206.634 284.453 206.362 285.016C206.015 285.734 207.886 285.823 209.636 285.757L209.186 287.72C209.049 288.321 208.5 288.739 207.882 288.712L201.169 288.419C200.37 288.384 199.798 287.635 199.976 286.856L204.733 266.1C204.871 265.498 205.419 265.081 206.037 265.108L212.751 265.401C213.549 265.436 214.121 266.185 213.943 266.963L212.251 274.345Z" fill="#020101"/>
<path d="M213.62 275.187C212.195 274.26 210.455 273.265 209.761 273.426C208.913 273.624 210.486 275.862 211.61 277.31C209.794 278.038 207.386 279.128 207.002 279.924C206.735 280.475 207.776 280.655 209.065 280.68C207.879 281.248 206.843 281.862 206.602 282.361C206.294 282.999 207.739 283.14 209.292 283.118C207.92 283.743 206.634 284.453 206.362 285.016C205.903 285.968 209.333 285.814 211.219 285.662L210.732 287.787C210.595 288.389 210.046 288.806 209.428 288.779L202.715 288.486C201.916 288.452 201.344 287.702 201.522 286.924L206.279 266.167C206.417 265.566 206.966 265.148 207.583 265.175L214.297 265.468C215.095 265.503 215.667 266.253 215.489 267.031L213.62 275.187Z" fill="#035356"/>
<path fill-rule="evenodd" clip-rule="evenodd" d="M208.01 267.924C207.854 268.605 207.452 269.088 207.113 269.003C206.774 268.918 206.625 268.298 206.782 267.618C206.938 266.937 207.34 266.455 207.679 266.539C208.018 266.624 208.167 267.244 208.01 267.924Z" fill="#020101"/>
<path fill-rule="evenodd" clip-rule="evenodd" d="M207.225 271.446C207.069 272.126 206.667 272.609 206.328 272.524C205.988 272.44 205.84 271.819 205.997 271.139C206.153 270.459 206.555 269.976 206.894 270.061C207.233 270.145 207.382 270.766 207.225 271.446Z" fill="#020101"/>
<path d="M149.733 259.026L145.234 258.809C145.234 258.809 146.396 261.801 147.627 265.648C150.06 273.254 155.832 274.963 160.861 274.954C165.559 274.947 167.155 270.499 164.102 265.343C162.137 262.024 159.433 260.169 158.852 259.732C164.784 260.133 168.63 260.7 172.051 263.903C178.564 270.002 183.837 281.245 186.006 292.352L174.104 297.655L169.865 314.008L138.719 313.534C138.719 313.534 138.992 310.539 138.32 306.21C137.445 300.549 134.287 296.324 134.287 296.324L131.154 301.078L111.671 289.611C118.05 277.998 126.947 266.025 132.878 262.215C137.069 259.522 140.906 258.846 144.655 258.809C146.36 258.793 148.072 258.908 149.733 259.026Z" fill="#14D2B8"/>
<path opacity="0.202962" fill-rule="evenodd" clip-rule="evenodd" d="M173.666 301.451C172.455 305.079 171.168 308.932 170.741 314.35L169.268 314.234C169.71 308.62 171.079 304.522 172.304 300.852C172.746 299.528 173.169 298.26 173.524 296.997C174.858 292.248 175.342 287.283 172.427 278.972L173.822 278.483C176.84 287.09 176.36 292.365 174.947 297.397C174.563 298.764 174.12 300.091 173.666 301.451Z" fill="#5E6166"/>
<path opacity="0.202962" fill-rule="evenodd" clip-rule="evenodd" d="M134.443 296.288L141.67 285.356L142.903 286.171L135.676 297.103L134.443 296.288Z" fill="#5E6166"/>
<g filter="url(#filter0_d)">
<path d="M216.09 200.541C216.09 190.047 224.596 181.541 235.09 181.541H446.174C456.668 181.541 465.174 190.047 465.174 200.541V232.564C465.174 243.058 456.667 251.564 446.174 251.564H219.09C217.433 251.564 216.09 250.221 216.09 248.564V200.541Z" fill="white"/>
</g>
<rect x="531.791" y="467.479" width="92.4617" height="18.7308" rx="9.36541" transform="rotate(-61 531.791 467.479)" fill="url(#paint1_linear)"/>
<rect x="461.173" y="521.855" width="144.873" height="18.7308" rx="9.36541" transform="rotate(-61 461.173 521.855)" fill="url(#paint2_linear)"/>
<g filter="url(#filter1_d)">
<path d="M269.108 324.583C269.108 314.089 277.615 305.583 288.108 305.583H500.193C510.686 305.583 519.193 314.089 519.193 324.583V371.606C519.193 373.263 517.85 374.606 516.193 374.606H288.108C277.615 374.606 269.108 366.1 269.108 355.606V324.583Z" fill="white"/>
</g>
<rect x="289.115" y="326.59" width="161.054" height="8.00271" fill="#DCDCDC"/>
<rect x="293.116" y="222.555" width="111.038" height="8.00271" fill="#DCDCDC"/>
<rect x="292.116" y="205.549" width="151.051" height="7.00237" fill="#DCDCDC"/>
<rect x="338.131" y="344.596" width="112.038" height="8.00271" fill="#DCDCDC"/>
<ellipse cx="483.18" cy="342.095" rx="23.0078" ry="23.5079" fill="#EFEFEF"/>
<ellipse cx="258.604" cy="217.553" rx="23.5079" ry="23.0078" fill="#EFEFEF"/>
<rect x="192.082" y="101.514" width="117.04" height="29.0098" rx="14.5049" fill="#A7F3E8"/>
<path d="M216.079 111.934V120.514H215.039V114.222C215.039 114.04 215.048 113.707 215.065 113.221C214.771 113.507 214.428 113.759 214.038 113.975C213.648 114.183 213.25 114.335 212.842 114.43L212.569 113.481C212.777 113.455 213.059 113.36 213.414 113.195C213.77 113.022 214.112 112.823 214.441 112.597C214.771 112.363 215.013 112.142 215.169 111.934H216.079ZM221.399 111.934V120.514H220.359V114.222C220.359 114.04 220.367 113.707 220.385 113.221C220.09 113.507 219.748 113.759 219.358 113.975C218.968 114.183 218.569 114.335 218.162 114.43L217.889 113.481C218.097 113.455 218.378 113.36 218.734 113.195C219.089 113.022 219.431 112.823 219.761 112.597C220.09 112.363 220.333 112.142 220.489 111.934H221.399ZM232.885 117.576C232.885 118.538 232.625 119.292 232.105 119.838C231.594 120.376 230.883 120.644 229.973 120.644C229.15 120.644 228.513 120.445 228.062 120.046C227.612 119.639 227.386 119.08 227.386 118.369C227.386 118.118 227.408 117.888 227.451 117.68L228.413 117.485C228.379 117.78 228.361 117.988 228.361 118.109C228.361 118.638 228.487 119.032 228.738 119.292C228.99 119.544 229.388 119.669 229.934 119.669C230.645 119.669 231.139 119.479 231.416 119.097C231.702 118.716 231.845 118.122 231.845 117.316V111.934H232.885V117.576ZM240.94 114.014V120.514H240.03L239.965 119.526C239.532 120.272 238.756 120.644 237.638 120.644C236.936 120.644 236.36 120.449 235.909 120.059C235.467 119.669 235.246 119.071 235.246 118.265V114.014H236.286V117.992C236.286 118.625 236.416 119.076 236.676 119.344C236.936 119.604 237.317 119.734 237.82 119.734C238.418 119.734 238.912 119.552 239.302 119.188C239.701 118.824 239.9 118.278 239.9 117.55V114.014H240.94ZM244.348 118.772C244.348 119.102 244.396 119.331 244.491 119.461C244.595 119.583 244.781 119.643 245.05 119.643C245.232 119.643 245.388 119.63 245.518 119.604C245.657 119.578 245.817 119.531 245.999 119.461L245.83 120.462C245.544 120.584 245.223 120.644 244.868 120.644C244.339 120.644 243.945 120.501 243.685 120.215C243.434 119.929 243.308 119.492 243.308 118.902V111.024H244.348V118.772ZM249.473 121.606C249.222 122.23 248.94 122.668 248.628 122.919C248.316 123.179 247.913 123.309 247.419 123.309C247.09 123.309 246.813 123.266 246.587 123.179C246.371 123.093 246.171 122.954 245.989 122.763L246.353 121.879C246.605 122.226 246.956 122.399 247.406 122.399C247.658 122.399 247.879 122.321 248.069 122.165C248.269 122.018 248.442 121.745 248.589 121.346L248.927 120.501L246.21 114.014H247.393L249.018 118.252L249.421 119.409L249.889 118.122L251.41 114.014H252.528L249.473 121.606ZM257.814 119.669C259.001 118.794 259.911 118.075 260.544 117.511C261.177 116.939 261.627 116.424 261.896 115.964C262.173 115.496 262.312 115.007 262.312 114.495C262.312 113.984 262.147 113.572 261.818 113.26C261.489 112.94 261.047 112.779 260.492 112.779C259.911 112.779 259.439 112.97 259.075 113.351C258.72 113.733 258.512 114.248 258.451 114.898L257.541 114.352C257.654 113.581 257.966 112.966 258.477 112.506C258.997 112.038 259.682 111.804 260.531 111.804C261.103 111.804 261.606 111.917 262.039 112.142C262.481 112.368 262.819 112.684 263.053 113.091C263.287 113.499 263.404 113.967 263.404 114.495C263.404 115.05 263.27 115.583 263.001 116.094C262.741 116.606 262.312 117.143 261.714 117.706C261.116 118.27 260.31 118.889 259.296 119.565V119.578C259.868 119.552 260.297 119.539 260.583 119.539H263.586V120.514H257.814V119.669ZM268.474 120.644C267.434 120.644 266.641 120.267 266.095 119.513C265.549 118.759 265.276 117.663 265.276 116.224C265.276 114.786 265.549 113.689 266.095 112.935C266.641 112.181 267.434 111.804 268.474 111.804C269.514 111.804 270.307 112.181 270.853 112.935C271.399 113.689 271.672 114.786 271.672 116.224C271.672 117.663 271.399 118.759 270.853 119.513C270.307 120.267 269.514 120.644 268.474 120.644ZM268.474 119.708C269.159 119.708 269.683 119.414 270.047 118.824C270.411 118.226 270.593 117.36 270.593 116.224C270.593 115.089 270.411 114.227 270.047 113.637C269.683 113.039 269.159 112.74 268.474 112.74C267.789 112.74 267.265 113.039 266.901 113.637C266.537 114.227 266.355 115.089 266.355 116.224C266.355 117.36 266.537 118.226 266.901 118.824C267.265 119.414 267.789 119.708 268.474 119.708ZM273.48 119.669C274.667 118.794 275.577 118.075 276.21 117.511C276.843 116.939 277.293 116.424 277.562 115.964C277.839 115.496 277.978 115.007 277.978 114.495C277.978 113.984 277.813 113.572 277.484 113.26C277.155 112.94 276.713 112.779 276.158 112.779C275.577 112.779 275.105 112.97 274.741 113.351C274.386 113.733 274.178 114.248 274.117 114.898L273.207 114.352C273.32 113.581 273.632 112.966 274.143 112.506C274.663 112.038 275.348 111.804 276.197 111.804C276.769 111.804 277.272 111.917 277.705 112.142C278.147 112.368 278.485 112.684 278.719 113.091C278.953 113.499 279.07 113.967 279.07 114.495C279.07 115.05 278.936 115.583 278.667 116.094C278.407 116.606 277.978 117.143 277.38 117.706C276.782 118.27 275.976 118.889 274.962 119.565V119.578C275.534 119.552 275.963 119.539 276.249 119.539H279.252V120.514H273.48V119.669ZM284.14 120.644C283.1 120.644 282.307 120.267 281.761 119.513C281.215 118.759 280.942 117.663 280.942 116.224C280.942 114.786 281.215 113.689 281.761 112.935C282.307 112.181 283.1 111.804 284.14 111.804C285.18 111.804 285.973 112.181 286.519 112.935C287.065 113.689 287.338 114.786 287.338 116.224C287.338 117.663 287.065 118.759 286.519 119.513C285.973 120.267 285.18 120.644 284.14 120.644ZM284.14 119.708C284.825 119.708 285.349 119.414 285.713 118.824C286.077 118.226 286.259 117.36 286.259 116.224C286.259 115.089 286.077 114.227 285.713 113.637C285.349 113.039 284.825 112.74 284.14 112.74C283.456 112.74 282.931 113.039 282.567 113.637C282.203 114.227 282.021 115.089 282.021 116.224C282.021 117.36 282.203 118.226 282.567 118.824C282.931 119.414 283.456 119.708 284.14 119.708Z" fill="#5E6166"/>
<g filter="url(#filter2_d)">
<rect x="176.077" y="409.618" width="343.116" height="49.0166" rx="24.5083" fill="white"/>
</g>
<path d="M503.495 433.208L480.8 421.86C480.622 421.771 480.422 421.735 480.225 421.757C480.027 421.779 479.84 421.858 479.686 421.984C479.539 422.107 479.429 422.269 479.369 422.451C479.309 422.633 479.301 422.829 479.345 423.015L482.399 434.126L479.304 445.205C479.262 445.361 479.257 445.524 479.29 445.683C479.322 445.841 479.392 445.989 479.492 446.115C479.592 446.242 479.721 446.343 479.867 446.41C480.014 446.478 480.174 446.511 480.336 446.505C480.497 446.504 480.656 446.465 480.8 446.391L503.495 435.044C503.664 434.957 503.806 434.826 503.905 434.664C504.004 434.502 504.056 434.316 504.056 434.126C504.056 433.936 504.004 433.75 503.905 433.588C503.806 433.426 503.664 433.294 503.495 433.208ZM481.935 443.524L484.214 435.157H493.746V433.094H484.214L481.935 424.728L500.72 434.126L481.935 443.524Z" fill="#14D2B8"/>
<path d="M202.019 436.582C202.019 437.598 201.621 438.384 200.824 438.941C200.032 439.499 198.915 439.777 197.472 439.777C194.79 439.777 193.235 438.845 192.808 436.98L194.253 436.691C194.42 437.353 194.774 437.84 195.316 438.152C195.858 438.46 196.595 438.613 197.527 438.613C198.49 438.613 199.233 438.449 199.753 438.121C200.279 437.788 200.542 437.301 200.542 436.66C200.542 436.301 200.459 436.009 200.292 435.785C200.131 435.561 199.902 435.376 199.605 435.23C199.308 435.085 198.954 434.962 198.542 434.863C198.131 434.764 197.675 434.658 197.175 434.543C196.306 434.35 195.644 434.158 195.191 433.965C194.743 433.772 194.389 433.559 194.128 433.324C193.868 433.085 193.667 432.806 193.527 432.488C193.391 432.171 193.324 431.806 193.324 431.395C193.324 430.452 193.683 429.725 194.402 429.215C195.126 428.704 196.16 428.449 197.503 428.449C198.753 428.449 199.709 428.642 200.371 429.027C201.032 429.408 201.496 430.059 201.761 430.98L200.292 431.238C200.131 430.655 199.824 430.233 199.371 429.973C198.917 429.707 198.29 429.574 197.488 429.574C196.608 429.574 195.936 429.72 195.472 430.012C195.009 430.303 194.777 430.738 194.777 431.316C194.777 431.655 194.865 431.936 195.042 432.16C195.225 432.379 195.485 432.566 195.824 432.723C196.162 432.874 196.837 433.061 197.847 433.285C198.186 433.363 198.522 433.444 198.855 433.527C199.194 433.605 199.516 433.702 199.824 433.816C200.131 433.926 200.417 434.056 200.683 434.207C200.954 434.358 201.188 434.543 201.386 434.762C201.584 434.98 201.738 435.238 201.847 435.535C201.962 435.832 202.019 436.181 202.019 436.582Z" fill="#CECECE"/>
<path d="M204.91 435.691C204.91 436.66 205.11 437.408 205.511 437.934C205.912 438.46 206.498 438.723 207.269 438.723C207.878 438.723 208.365 438.6 208.73 438.355C209.1 438.111 209.35 437.801 209.48 437.426L210.714 437.777C210.209 439.111 209.061 439.777 207.269 439.777C206.019 439.777 205.066 439.405 204.41 438.66C203.759 437.915 203.433 436.809 203.433 435.34C203.433 433.944 203.759 432.874 204.41 432.129C205.066 431.384 206.001 431.012 207.214 431.012C209.699 431.012 210.941 432.509 210.941 435.504V435.691H204.91ZM209.488 434.613C209.41 433.723 209.183 433.074 208.808 432.668C208.433 432.257 207.894 432.051 207.191 432.051C206.509 432.051 205.967 432.28 205.566 432.738C205.17 433.191 204.957 433.816 204.925 434.613H209.488Z" fill="#CECECE"/>
<path d="M218.105 439.621V434.262C218.105 433.704 218.05 433.272 217.941 432.965C217.832 432.658 217.657 432.436 217.417 432.301C217.178 432.165 216.826 432.098 216.363 432.098C215.686 432.098 215.152 432.329 214.761 432.793C214.371 433.257 214.175 433.9 214.175 434.723V439.621H212.769V432.973C212.769 431.988 212.753 431.387 212.722 431.168H214.05C214.056 431.194 214.061 431.264 214.066 431.379C214.071 431.493 214.076 431.626 214.082 431.777C214.092 431.923 214.102 432.202 214.113 432.613H214.136C214.459 432.03 214.832 431.618 215.253 431.379C215.681 431.134 216.209 431.012 216.839 431.012C217.766 431.012 218.444 431.243 218.871 431.707C219.303 432.165 219.519 432.926 219.519 433.988V439.621H218.105Z" fill="#CECECE"/>
<path d="M226.98 438.262C226.72 438.803 226.373 439.191 225.941 439.426C225.514 439.66 224.983 439.777 224.347 439.777C223.279 439.777 222.493 439.418 221.988 438.699C221.488 437.98 221.238 436.892 221.238 435.434C221.238 432.486 222.274 431.012 224.347 431.012C224.988 431.012 225.522 431.129 225.949 431.363C226.376 431.598 226.72 431.97 226.98 432.48H226.996L226.98 431.535V428.027H228.386V437.879C228.386 438.759 228.402 439.34 228.433 439.621H227.089C227.074 439.538 227.056 439.345 227.035 439.043C227.019 438.741 227.011 438.48 227.011 438.262H226.98ZM222.714 435.387C222.714 436.569 222.871 437.415 223.183 437.926C223.496 438.436 224.003 438.691 224.707 438.691C225.503 438.691 226.082 438.415 226.441 437.863C226.8 437.311 226.98 436.454 226.98 435.293C226.98 434.173 226.8 433.353 226.441 432.832C226.082 432.311 225.509 432.051 224.722 432.051C224.014 432.051 223.501 432.314 223.183 432.84C222.871 433.361 222.714 434.21 222.714 435.387Z" fill="#CECECE"/>
<path d="M244.597 439.621V432.277C244.597 431.465 244.621 430.684 244.667 429.934C244.412 430.866 244.183 431.595 243.98 432.121L241.136 439.621H240.089L237.207 432.121L236.769 430.793L236.511 429.934L236.535 430.801L236.566 432.277V439.621H235.238V428.613H237.199L240.128 436.246C240.233 436.553 240.332 436.884 240.425 437.238C240.524 437.587 240.589 437.84 240.621 437.996C240.662 437.788 240.748 437.473 240.878 437.051C241.014 436.624 241.105 436.355 241.152 436.246L244.027 428.613H245.941V439.621H244.597Z" fill="#CECECE"/>
<path d="M249.41 435.691C249.41 436.66 249.61 437.408 250.011 437.934C250.412 438.46 250.998 438.723 251.769 438.723C252.378 438.723 252.865 438.6 253.23 438.355C253.6 438.111 253.85 437.801 253.98 437.426L255.214 437.777C254.709 439.111 253.561 439.777 251.769 439.777C250.519 439.777 249.566 439.405 248.91 438.66C248.259 437.915 247.933 436.809 247.933 435.34C247.933 433.944 248.259 432.874 248.91 432.129C249.566 431.384 250.501 431.012 251.714 431.012C254.199 431.012 255.441 432.509 255.441 435.504V435.691H249.41ZM253.988 434.613C253.91 433.723 253.683 433.074 253.308 432.668C252.933 432.257 252.394 432.051 251.691 432.051C251.009 432.051 250.467 432.28 250.066 432.738C249.67 433.191 249.457 433.816 249.425 434.613H253.988Z" fill="#CECECE"/>
<path d="M263.582 437.285C263.582 438.082 263.279 438.697 262.675 439.129C262.076 439.561 261.235 439.777 260.152 439.777C259.1 439.777 258.287 439.605 257.714 439.262C257.147 438.913 256.777 438.371 256.605 437.637L257.847 437.395C257.967 437.848 258.214 438.181 258.589 438.395C258.964 438.603 259.485 438.707 260.152 438.707C260.865 438.707 261.386 438.598 261.714 438.379C262.048 438.16 262.214 437.832 262.214 437.395C262.214 437.061 262.1 436.79 261.871 436.582C261.641 436.374 261.272 436.202 260.761 436.066L259.753 435.801C258.946 435.592 258.371 435.389 258.027 435.191C257.688 434.988 257.423 434.743 257.23 434.457C257.037 434.171 256.941 433.819 256.941 433.402C256.941 432.632 257.214 432.046 257.761 431.645C258.313 431.238 259.115 431.035 260.167 431.035C261.1 431.035 261.839 431.199 262.386 431.527C262.938 431.855 263.287 432.382 263.433 433.105L262.167 433.262C262.089 432.887 261.878 432.6 261.535 432.402C261.196 432.199 260.74 432.098 260.167 432.098C259.532 432.098 259.063 432.194 258.761 432.387C258.459 432.579 258.308 432.871 258.308 433.262C258.308 433.501 258.371 433.699 258.496 433.855C258.621 434.012 258.806 434.145 259.05 434.254C259.295 434.363 259.811 434.514 260.597 434.707C261.342 434.895 261.878 435.069 262.207 435.23C262.535 435.387 262.792 435.561 262.98 435.754C263.173 435.947 263.321 436.171 263.425 436.426C263.529 436.676 263.582 436.962 263.582 437.285Z" fill="#CECECE"/>
<path d="M271.582 437.285C271.582 438.082 271.279 438.697 270.675 439.129C270.076 439.561 269.235 439.777 268.152 439.777C267.1 439.777 266.287 439.605 265.714 439.262C265.147 438.913 264.777 438.371 264.605 437.637L265.847 437.395C265.967 437.848 266.214 438.181 266.589 438.395C266.964 438.603 267.485 438.707 268.152 438.707C268.865 438.707 269.386 438.598 269.714 438.379C270.048 438.16 270.214 437.832 270.214 437.395C270.214 437.061 270.1 436.79 269.871 436.582C269.641 436.374 269.272 436.202 268.761 436.066L267.753 435.801C266.946 435.592 266.371 435.389 266.027 435.191C265.688 434.988 265.423 434.743 265.23 434.457C265.037 434.171 264.941 433.819 264.941 433.402C264.941 432.632 265.214 432.046 265.761 431.645C266.313 431.238 267.115 431.035 268.167 431.035C269.1 431.035 269.839 431.199 270.386 431.527C270.938 431.855 271.287 432.382 271.433 433.105L270.167 433.262C270.089 432.887 269.878 432.6 269.535 432.402C269.196 432.199 268.74 432.098 268.167 432.098C267.532 432.098 267.063 432.194 266.761 432.387C266.459 432.579 266.308 432.871 266.308 433.262C266.308 433.501 266.371 433.699 266.496 433.855C266.621 434.012 266.806 434.145 267.05 434.254C267.295 434.363 267.811 434.514 268.597 434.707C269.342 434.895 269.878 435.069 270.207 435.23C270.535 435.387 270.792 435.561 270.98 435.754C271.173 435.947 271.321 436.171 271.425 436.426C271.529 436.676 271.582 436.962 271.582 437.285Z" fill="#CECECE"/>
<path d="M275.394 439.777C274.545 439.777 273.907 439.553 273.48 439.105C273.053 438.658 272.839 438.043 272.839 437.262C272.839 436.387 273.126 435.715 273.699 435.246C274.277 434.777 275.207 434.527 276.488 434.496L278.386 434.465V434.004C278.386 433.316 278.24 432.824 277.949 432.527C277.657 432.23 277.199 432.082 276.574 432.082C275.944 432.082 275.485 432.189 275.199 432.402C274.912 432.616 274.74 432.957 274.683 433.426L273.214 433.293C273.454 431.772 274.584 431.012 276.605 431.012C277.667 431.012 278.467 431.257 279.003 431.746C279.54 432.23 279.808 432.934 279.808 433.855V437.496C279.808 437.913 279.863 438.228 279.972 438.441C280.082 438.65 280.29 438.754 280.597 438.754C280.733 438.754 280.886 438.736 281.058 438.699V439.574C280.704 439.658 280.342 439.699 279.972 439.699C279.451 439.699 279.071 439.564 278.832 439.293C278.597 439.017 278.464 438.587 278.433 438.004H278.386C278.027 438.65 277.608 439.108 277.128 439.379C276.654 439.645 276.076 439.777 275.394 439.777ZM275.714 438.723C276.23 438.723 276.688 438.605 277.089 438.371C277.49 438.137 277.806 437.816 278.035 437.41C278.269 436.999 278.386 436.577 278.386 436.145V435.449L276.847 435.48C276.186 435.491 275.683 435.559 275.339 435.684C275.001 435.809 274.74 436.001 274.558 436.262C274.376 436.522 274.285 436.863 274.285 437.285C274.285 437.743 274.407 438.098 274.652 438.348C274.902 438.598 275.256 438.723 275.714 438.723Z" fill="#CECECE"/>
<path d="M285.347 442.941C284.425 442.941 283.691 442.759 283.144 442.395C282.597 442.035 282.246 441.522 282.089 440.855L283.503 440.652C283.597 441.043 283.803 441.342 284.121 441.551C284.444 441.764 284.865 441.871 285.386 441.871C286.787 441.871 287.488 441.051 287.488 439.41V438.051H287.472C287.207 438.592 286.842 439.001 286.378 439.277C285.915 439.548 285.373 439.684 284.753 439.684C283.717 439.684 282.954 439.34 282.464 438.652C281.98 437.965 281.738 436.884 281.738 435.41C281.738 433.915 281.998 432.814 282.519 432.105C283.045 431.392 283.842 431.035 284.91 431.035C285.509 431.035 286.027 431.173 286.464 431.449C286.907 431.72 287.248 432.108 287.488 432.613H287.503C287.503 432.457 287.514 432.186 287.535 431.801C287.556 431.415 287.576 431.204 287.597 431.168H288.933C288.902 431.449 288.886 432.033 288.886 432.918V439.379C288.886 441.754 287.707 442.941 285.347 442.941ZM287.488 435.395C287.488 434.707 287.394 434.116 287.207 433.621C287.019 433.121 286.753 432.741 286.41 432.48C286.071 432.215 285.686 432.082 285.253 432.082C284.535 432.082 284.011 432.342 283.683 432.863C283.355 433.384 283.191 434.228 283.191 435.395C283.191 436.551 283.345 437.382 283.652 437.887C283.959 438.392 284.485 438.645 285.23 438.645C285.673 438.645 286.066 438.514 286.41 438.254C286.753 437.993 287.019 437.621 287.207 437.137C287.394 436.647 287.488 436.066 287.488 435.395Z" fill="#CECECE"/>
<path d="M292.128 435.691C292.128 436.66 292.329 437.408 292.73 437.934C293.131 438.46 293.717 438.723 294.488 438.723C295.097 438.723 295.584 438.6 295.949 438.355C296.319 438.111 296.569 437.801 296.699 437.426L297.933 437.777C297.428 439.111 296.279 439.777 294.488 439.777C293.238 439.777 292.285 439.405 291.628 438.66C290.977 437.915 290.652 436.809 290.652 435.34C290.652 433.944 290.977 432.874 291.628 432.129C292.285 431.384 293.22 431.012 294.433 431.012C296.917 431.012 298.16 432.509 298.16 435.504V435.691H292.128ZM296.707 434.613C296.628 433.723 296.402 433.074 296.027 432.668C295.652 432.257 295.113 432.051 294.41 432.051C293.727 432.051 293.186 432.28 292.785 432.738C292.389 433.191 292.175 433.816 292.144 434.613H296.707Z" fill="#CECECE"/>
<defs>
<filter id="filter0_d" x="196.09" y="165.541" width="289.084" height="110.024" filterUnits="userSpaceOnUse" color-interpolation-filters="sRGB">
<feFlood flood-opacity="0" result="BackgroundImageFix"/>
<feColorMatrix in="SourceAlpha" type="matrix" values="0 0 0 0 0 0 0 0 0 0 0 0 0 0 0 0 0 0 127 0"/>
<feOffset dy="4"/>
<feGaussianBlur stdDeviation="10"/>
<feColorMatrix type="matrix" values="0 0 0 0 0 0 0 0 0 0 0 0 0 0 0 0 0 0 0.1 0"/>
<feBlend mode="normal" in2="BackgroundImageFix" result="effect1_dropShadow"/>
<feBlend mode="normal" in="SourceGraphic" in2="effect1_dropShadow" result="shape"/>
</filter>
<filter id="filter1_d" x="249.108" y="289.583" width="290.085" height="109.023" filterUnits="userSpaceOnUse" color-interpolation-filters="sRGB">
<feFlood flood-opacity="0" result="BackgroundImageFix"/>
<feColorMatrix in="SourceAlpha" type="matrix" values="0 0 0 0 0 0 0 0 0 0 0 0 0 0 0 0 0 0 127 0"/>
<feOffset dy="4"/>
<feGaussianBlur stdDeviation="10"/>
<feColorMatrix type="matrix" values="0 0 0 0 0 0 0 0 0 0 0 0 0 0 0 0 0 0 0.1 0"/>
<feBlend mode="normal" in2="BackgroundImageFix" result="effect1_dropShadow"/>
<feBlend mode="normal" in="SourceGraphic" in2="effect1_dropShadow" result="shape"/>
</filter>
<filter id="filter2_d" x="168.077" y="403.618" width="359.116" height="65.0166" filterUnits="userSpaceOnUse" color-interpolation-filters="sRGB">
<feFlood flood-opacity="0" result="BackgroundImageFix"/>
<feColorMatrix in="SourceAlpha" type="matrix" values="0 0 0 0 0 0 0 0 0 0 0 0 0 0 0 0 0 0 127 0"/>
<feOffset dy="2"/>
<feGaussianBlur stdDeviation="4"/>
<feColorMatrix type="matrix" values="0 0 0 0 0 0 0 0 0 0 0 0 0 0 0 0 0 0 0.1 0"/>
<feBlend mode="normal" in2="BackgroundImageFix" result="effect1_dropShadow"/>
<feBlend mode="normal" in="SourceGraphic" in2="effect1_dropShadow" result="shape"/>
</filter>
<linearGradient id="paint0_linear" x1="637.642" y1="379.45" x2="145.54" y2="64.0997" gradientUnits="userSpaceOnUse">
<stop offset="0.0677083" stop-color="#F2FEFC"/>
<stop offset="1" stop-color="#E4FFFB"/>
</linearGradient>
<linearGradient id="paint1_linear" x1="620.782" y1="476.17" x2="527.253" y2="476.902" gradientUnits="userSpaceOnUse">
<stop stop-color="#05AEB5"/>
<stop offset="1" stop-color="#035356"/>
</linearGradient>
<linearGradient id="paint2_linear" x1="605.37" y1="533.097" x2="463.612" y2="531.554" gradientUnits="userSpaceOnUse">
<stop stop-color="#DAF1F2"/>
<stop offset="1" stop-color="#C9E6E8"/>
<stop offset="1" stop-color="#F7F7F7"/>
</linearGradient>
</defs>
</svg>
